%YAML 1.1
%TAG !u! tag:unity3d.com,2011:
--- !u!29 &1
OcclusionCullingSettings:
  m_ObjectHideFlags: 0
  serializedVersion: 2
  m_OcclusionBakeSettings:
    smallestOccluder: 5
    smallestHole: 0.25
    backfaceThreshold: 100
  m_SceneGUID: 00000000000000000000000000000000
  m_OcclusionCullingData: {fileID: 0}
--- !u!104 &2
RenderSettings:
  m_ObjectHideFlags: 0
  serializedVersion: 9
  m_Fog: 1
  m_FogColor: {r: 0.20879315, g: 0.79464054, b: 0.8679245, a: 1}
  m_FogMode: 3
  m_FogDensity: 0.01
  m_LinearFogStart: 15
  m_LinearFogEnd: 350
  m_AmbientSkyColor: {r: 0.7389706, g: 0.7495436, b: 0.75, a: 1}
  m_AmbientEquatorColor: {r: 0.60294116, g: 0.60294116, b: 0.60294116, a: 1}
  m_AmbientGroundColor: {r: 0.24264705, g: 0.24264705, b: 0.24264705, a: 1}
  m_AmbientIntensity: 1.5
  m_AmbientMode: 0
  m_SubtractiveShadowColor: {r: 0.42, g: 0.478, b: 0.627, a: 1}
  m_SkyboxMaterial: {fileID: 10304, guid: 0000000000000000f000000000000000, type: 0}
  m_HaloStrength: 0.5
  m_FlareStrength: 1
  m_FlareFadeSpeed: 3
  m_HaloTexture: {fileID: 0}
  m_SpotCookie: {fileID: 10001, guid: 0000000000000000e000000000000000, type: 0}
  m_DefaultReflectionMode: 0
  m_DefaultReflectionResolution: 128
  m_ReflectionBounces: 1
  m_ReflectionIntensity: 1
  m_CustomReflection: {fileID: 0}
  m_Sun: {fileID: 2003931976}
  m_IndirectSpecularColor: {r: 0.16788375, g: 0.21073635, b: 0.28994125, a: 1}
  m_UseRadianceAmbientProbe: 0
--- !u!157 &3
LightmapSettings:
  m_ObjectHideFlags: 0
  serializedVersion: 11
  m_GIWorkflowMode: 0
  m_GISettings:
    serializedVersion: 2
    m_BounceScale: 1
    m_IndirectOutputScale: 1
    m_AlbedoBoost: 1
    m_EnvironmentLightingMode: 0
    m_EnableBakedLightmaps: 0
    m_EnableRealtimeLightmaps: 0
  m_LightmapEditorSettings:
    serializedVersion: 12
    m_Resolution: 2
    m_BakeResolution: 40
    m_AtlasSize: 1024
    m_AO: 0
    m_AOMaxDistance: 1
    m_CompAOExponent: 1
    m_CompAOExponentDirect: 0
    m_ExtractAmbientOcclusion: 0
    m_Padding: 2
    m_LightmapParameters: {fileID: 0}
    m_LightmapsBakeMode: 1
    m_TextureCompression: 1
    m_FinalGather: 0
    m_FinalGatherFiltering: 1
    m_FinalGatherRayCount: 256
    m_ReflectionCompression: 2
    m_MixedBakeMode: 2
    m_BakeBackend: 0
    m_PVRSampling: 1
    m_PVRDirectSampleCount: 32
    m_PVRSampleCount: 500
    m_PVRBounces: 2
    m_PVREnvironmentSampleCount: 500
    m_PVREnvironmentReferencePointCount: 2048
    m_PVRFilteringMode: 2
    m_PVRDenoiserTypeDirect: 0
    m_PVRDenoiserTypeIndirect: 0
    m_PVRDenoiserTypeAO: 0
    m_PVRFilterTypeDirect: 0
    m_PVRFilterTypeIndirect: 0
    m_PVRFilterTypeAO: 0
    m_PVREnvironmentMIS: 0
    m_PVRCulling: 1
    m_PVRFilteringGaussRadiusDirect: 1
    m_PVRFilteringGaussRadiusIndirect: 5
    m_PVRFilteringGaussRadiusAO: 2
    m_PVRFilteringAtrousPositionSigmaDirect: 0.5
    m_PVRFilteringAtrousPositionSigmaIndirect: 2
    m_PVRFilteringAtrousPositionSigmaAO: 1
    m_ExportTrainingData: 0
    m_TrainingDataDestination: TrainingData
    m_LightProbeSampleCountMultiplier: 4
  m_LightingDataAsset: {fileID: 0}
  m_UseShadowmask: 0
--- !u!196 &4
NavMeshSettings:
  serializedVersion: 2
  m_ObjectHideFlags: 0
  m_BuildSettings:
    serializedVersion: 2
    agentTypeID: 0
    agentRadius: 0.5
    agentHeight: 2
    agentSlope: 45
    agentClimb: 0.4
    ledgeDropHeight: 0
    maxJumpAcrossDistance: 0
    minRegionArea: 2
    manualCellSize: 0
    cellSize: 0.16666667
    manualTileSize: 0
    tileSize: 256
    accuratePlacement: 0
    debug:
      m_Flags: 0
  m_NavMeshData: {fileID: 0}
--- !u!4 &2471691 stripped
Transform:
  m_CorrespondingSourceObject: {fileID: 4243724423293762, guid: c07f24e35f07ce74ba43afa35d48adf7,
    type: 3}
  m_PrefabInstance: {fileID: 1964260479}
  m_PrefabAsset: {fileID: 0}
--- !u!4 &13353893 stripped
Transform:
  m_CorrespondingSourceObject: {fileID: 4243724423293762, guid: c07f24e35f07ce74ba43afa35d48adf7,
    type: 3}
  m_PrefabInstance: {fileID: 404337272}
  m_PrefabAsset: {fileID: 0}
--- !u!1001 &43025617
PrefabInstance:
  m_ObjectHideFlags: 0
  serializedVersion: 2
  m_Modification:
    m_TransformParent: {fileID: 144935740}
    m_Modifications:
    - target: {fileID: 1562119382739742, guid: c07f24e35f07ce74ba43afa35d48adf7, type: 3}
      propertyPath: m_Name
      value: Rock1 (1)
      objectReference: {fileID: 0}
    - target: {fileID: 4243724423293762, guid: c07f24e35f07ce74ba43afa35d48adf7, type: 3}
      propertyPath: m_LocalPosition.x
      value: 234.73
      objectReference: {fileID: 0}
    - target: {fileID: 4243724423293762, guid: c07f24e35f07ce74ba43afa35d48adf7, type: 3}
      propertyPath: m_LocalPosition.y
      value: 1.4099998
      objectReference: {fileID: 0}
    - target: {fileID: 4243724423293762, guid: c07f24e35f07ce74ba43afa35d48adf7, type: 3}
      propertyPath: m_LocalPosition.z
      value: 200.3
      objectReference: {fileID: 0}
    - target: {fileID: 4243724423293762, guid: c07f24e35f07ce74ba43afa35d48adf7, type: 3}
      propertyPath: m_LocalRotation.x
      value: -0
      objectReference: {fileID: 0}
    - target: {fileID: 4243724423293762, guid: c07f24e35f07ce74ba43afa35d48adf7, type: 3}
      propertyPath: m_LocalRotation.y
      value: 0.6234636
      objectReference: {fileID: 0}
    - target: {fileID: 4243724423293762, guid: c07f24e35f07ce74ba43afa35d48adf7, type: 3}
      propertyPath: m_LocalRotation.z
      value: -0
      objectReference: {fileID: 0}
    - target: {fileID: 4243724423293762, guid: c07f24e35f07ce74ba43afa35d48adf7, type: 3}
      propertyPath: m_LocalRotation.w
      value: 0.7818524
      objectReference: {fileID: 0}
    - target: {fileID: 4243724423293762, guid: c07f24e35f07ce74ba43afa35d48adf7, type: 3}
      propertyPath: m_RootOrder
      value: 1
      objectReference: {fileID: 0}
    - target: {fileID: 4243724423293762, guid: c07f24e35f07ce74ba43afa35d48adf7, type: 3}
      propertyPath: m_LocalEulerAnglesHint.y
      value: 77.139
      objectReference: {fileID: 0}
    m_RemovedComponents: []
  m_SourcePrefab: {fileID: 100100000, guid: c07f24e35f07ce74ba43afa35d48adf7, type: 3}
--- !u!1 &144935739
GameObject:
  m_ObjectHideFlags: 0
  m_CorrespondingSourceObject: {fileID: 0}
  m_PrefabInstance: {fileID: 0}
  m_PrefabAsset: {fileID: 0}
  serializedVersion: 6
  m_Component:
  - component: {fileID: 144935740}
  m_Layer: 0
  m_Name: Rocks
  m_TagString: Untagged
  m_Icon: {fileID: 0}
  m_NavMeshLayer: 0
  m_StaticEditorFlags: 0
  m_IsActive: 1
--- !u!4 &144935740
Transform:
  m_ObjectHideFlags: 0
  m_CorrespondingSourceObject: {fileID: 0}
  m_PrefabInstance: {fileID: 0}
  m_PrefabAsset: {fileID: 0}
  m_GameObject: {fileID: 144935739}
  m_LocalRotation: {x: -0, y: -0, z: -0, w: 1}
  m_LocalPosition: {x: 0, y: 0, z: 0}
  m_LocalScale: {x: 1, y: 1, z: 1}
  m_Children:
  - {fileID: 776582331}
  - {fileID: 1111172249}
  - {fileID: 809334421}
  - {fileID: 763089204}
  - {fileID: 13353893}
  - {fileID: 2075207863}
  - {fileID: 466665851}
  - {fileID: 2471691}
  - {fileID: 342748549}
  - {fileID: 974865241}
  m_Father: {fileID: 1174709690}
  m_RootOrder: 0
  m_LocalEulerAnglesHint: {x: 0, y: 0, z: 0}
--- !u!1 &185862705
GameObject:
  m_ObjectHideFlags: 0
  m_CorrespondingSourceObject: {fileID: 0}
  m_PrefabInstance: {fileID: 0}
  m_PrefabAsset: {fileID: 0}
  serializedVersion: 6
  m_Component:
  - component: {fileID: 185862706}
  m_Layer: 0
  m_Name: Collision
  m_TagString: Untagged
  m_Icon: {fileID: 0}
  m_NavMeshLayer: 0
  m_StaticEditorFlags: 0
  m_IsActive: 1
--- !u!4 &185862706
Transform:
  m_ObjectHideFlags: 0
  m_CorrespondingSourceObject: {fileID: 0}
  m_PrefabInstance: {fileID: 0}
  m_PrefabAsset: {fileID: 0}
  m_GameObject: {fileID: 185862705}
  m_LocalRotation: {x: 0, y: 0, z: 0, w: 1}
  m_LocalPosition: {x: 0, y: 0, z: 0}
  m_LocalScale: {x: 1, y: 1, z: 1}
  m_Children:
  - {fileID: 1958515458}
  - {fileID: 426081491}
  - {fileID: 443947015}
  - {fileID: 1499058512}
  m_Father: {fileID: 0}
  m_RootOrder: 3
  m_LocalEulerAnglesHint: {x: 0, y: 0, z: 0}
--- !u!1001 &254576822
PrefabInstance:
  m_ObjectHideFlags: 0
  serializedVersion: 2
  m_Modification:
    m_TransformParent: {fileID: 144935740}
    m_Modifications:
    - target: {fileID: 1562119382739742, guid: c07f24e35f07ce74ba43afa35d48adf7, type: 3}
      propertyPath: m_Name
      value: Rock1 (3)
      objectReference: {fileID: 0}
    - target: {fileID: 4243724423293762, guid: c07f24e35f07ce74ba43afa35d48adf7, type: 3}
      propertyPath: m_LocalPosition.x
      value: 208.46
      objectReference: {fileID: 0}
    - target: {fileID: 4243724423293762, guid: c07f24e35f07ce74ba43afa35d48adf7, type: 3}
      propertyPath: m_LocalPosition.y
      value: 3.3400002
      objectReference: {fileID: 0}
    - target: {fileID: 4243724423293762, guid: c07f24e35f07ce74ba43afa35d48adf7, type: 3}
      propertyPath: m_LocalPosition.z
      value: 210.62
      objectReference: {fileID: 0}
    - target: {fileID: 4243724423293762, guid: c07f24e35f07ce74ba43afa35d48adf7, type: 3}
      propertyPath: m_LocalRotation.x
      value: -0
      objectReference: {fileID: 0}
    - target: {fileID: 4243724423293762, guid: c07f24e35f07ce74ba43afa35d48adf7, type: 3}
      propertyPath: m_LocalRotation.y
      value: 0.35473704
      objectReference: {fileID: 0}
    - target: {fileID: 4243724423293762, guid: c07f24e35f07ce74ba43afa35d48adf7, type: 3}
      propertyPath: m_LocalRotation.z
      value: -0
      objectReference: {fileID: 0}
    - target: {fileID: 4243724423293762, guid: c07f24e35f07ce74ba43afa35d48adf7, type: 3}
      propertyPath: m_LocalRotation.w
      value: -0.93496615
      objectReference: {fileID: 0}
    - target: {fileID: 4243724423293762, guid: c07f24e35f07ce74ba43afa35d48adf7, type: 3}
      propertyPath: m_RootOrder
      value: 3
      objectReference: {fileID: 0}
    - target: {fileID: 4243724423293762, guid: c07f24e35f07ce74ba43afa35d48adf7, type: 3}
      propertyPath: m_LocalEulerAnglesHint.y
      value: 318.445
      objectReference: {fileID: 0}
    m_RemovedComponents: []
  m_SourcePrefab: {fileID: 100100000, guid: c07f24e35f07ce74ba43afa35d48adf7, type: 3}
--- !u!4 &342748549 stripped
Transform:
  m_CorrespondingSourceObject: {fileID: 4243724423293762, guid: c07f24e35f07ce74ba43afa35d48adf7,
    type: 3}
  m_PrefabInstance: {fileID: 777749184}
  m_PrefabAsset: {fileID: 0}
--- !u!1001 &351206198
PrefabInstance:
  m_ObjectHideFlags: 0
  serializedVersion: 2
  m_Modification:
    m_TransformParent: {fileID: 144935740}
    m_Modifications:
    - target: {fileID: 1562119382739742, guid: c07f24e35f07ce74ba43afa35d48adf7, type: 3}
      propertyPath: m_Name
      value: Rock1 (9)
      objectReference: {fileID: 0}
    - target: {fileID: 4243724423293762, guid: c07f24e35f07ce74ba43afa35d48adf7, type: 3}
      propertyPath: m_LocalPosition.x
      value: 354
      objectReference: {fileID: 0}
    - target: {fileID: 4243724423293762, guid: c07f24e35f07ce74ba43afa35d48adf7, type: 3}
      propertyPath: m_LocalPosition.y
      value: 1.5299997
      objectReference: {fileID: 0}
    - target: {fileID: 4243724423293762, guid: c07f24e35f07ce74ba43afa35d48adf7, type: 3}
      propertyPath: m_LocalPosition.z
      value: 254.08
      objectReference: {fileID: 0}
    - target: {fileID: 4243724423293762, guid: c07f24e35f07ce74ba43afa35d48adf7, type: 3}
      propertyPath: m_LocalRotation.x
      value: -0
      objectReference: {fileID: 0}
    - target: {fileID: 4243724423293762, guid: c07f24e35f07ce74ba43afa35d48adf7, type: 3}
      propertyPath: m_LocalRotation.y
      value: 0.35473704
      objectReference: {fileID: 0}
    - target: {fileID: 4243724423293762, guid: c07f24e35f07ce74ba43afa35d48adf7, type: 3}
      propertyPath: m_LocalRotation.z
      value: -0
      objectReference: {fileID: 0}
    - target: {fileID: 4243724423293762, guid: c07f24e35f07ce74ba43afa35d48adf7, type: 3}
      propertyPath: m_LocalRotation.w
      value: -0.93496615
      objectReference: {fileID: 0}
    - target: {fileID: 4243724423293762, guid: c07f24e35f07ce74ba43afa35d48adf7, type: 3}
      propertyPath: m_RootOrder
      value: 9
      objectReference: {fileID: 0}
    - target: {fileID: 4243724423293762, guid: c07f24e35f07ce74ba43afa35d48adf7, type: 3}
      propertyPath: m_LocalEulerAnglesHint.y
      value: 318.445
      objectReference: {fileID: 0}
    m_RemovedComponents: []
  m_SourcePrefab: {fileID: 100100000, guid: c07f24e35f07ce74ba43afa35d48adf7, type: 3}
--- !u!1001 &375198324
PrefabInstance:
  m_ObjectHideFlags: 0
  serializedVersion: 2
  m_Modification:
    m_TransformParent: {fileID: 144935740}
    m_Modifications:
    - target: {fileID: 1562119382739742, guid: c07f24e35f07ce74ba43afa35d48adf7, type: 3}
      propertyPath: m_Name
      value: Rock1 (2)
      objectReference: {fileID: 0}
    - target: {fileID: 4243724423293762, guid: c07f24e35f07ce74ba43afa35d48adf7, type: 3}
      propertyPath: m_LocalPosition.x
      value: 204.2
      objectReference: {fileID: 0}
    - target: {fileID: 4243724423293762, guid: c07f24e35f07ce74ba43afa35d48adf7, type: 3}
      propertyPath: m_LocalPosition.y
      value: 2.2399998
      objectReference: {fileID: 0}
    - target: {fileID: 4243724423293762, guid: c07f24e35f07ce74ba43afa35d48adf7, type: 3}
      propertyPath: m_LocalPosition.z
      value: 208.63
      objectReference: {fileID: 0}
    - target: {fileID: 4243724423293762, guid: c07f24e35f07ce74ba43afa35d48adf7, type: 3}
      propertyPath: m_LocalRotation.x
      value: -0
      objectReference: {fileID: 0}
    - target: {fileID: 4243724423293762, guid: c07f24e35f07ce74ba43afa35d48adf7, type: 3}
      propertyPath: m_LocalRotation.y
      value: 0.8762464
      objectReference: {fileID: 0}
    - target: {fileID: 4243724423293762, guid: c07f24e35f07ce74ba43afa35d48adf7, type: 3}
      propertyPath: m_LocalRotation.z
      value: -0
      objectReference: {fileID: 0}
    - target: {fileID: 4243724423293762, guid: c07f24e35f07ce74ba43afa35d48adf7, type: 3}
      propertyPath: m_LocalRotation.w
      value: -0.48186347
      objectReference: {fileID: 0}
    - target: {fileID: 4243724423293762, guid: c07f24e35f07ce74ba43afa35d48adf7, type: 3}
      propertyPath: m_RootOrder
      value: 2
      objectReference: {fileID: 0}
    - target: {fileID: 4243724423293762, guid: c07f24e35f07ce74ba43afa35d48adf7, type: 3}
      propertyPath: m_LocalEulerAnglesHint.y
      value: 237.61398
      objectReference: {fileID: 0}
    - target: {fileID: 4243724423293762, guid: c07f24e35f07ce74ba43afa35d48adf7, type: 3}
      propertyPath: m_LocalScale.x
      value: 1
      objectReference: {fileID: 0}
    - target: {fileID: 4243724423293762, guid: c07f24e35f07ce74ba43afa35d48adf7, type: 3}
      propertyPath: m_LocalScale.z
      value: 1
      objectReference: {fileID: 0}
    m_RemovedComponents: []
  m_SourcePrefab: {fileID: 100100000, guid: c07f24e35f07ce74ba43afa35d48adf7, type: 3}
--- !u!1001 &404337272
PrefabInstance:
  m_ObjectHideFlags: 0
  serializedVersion: 2
  m_Modification:
    m_TransformParent: {fileID: 144935740}
    m_Modifications:
    - target: {fileID: 1562119382739742, guid: c07f24e35f07ce74ba43afa35d48adf7, type: 3}
      propertyPath: m_Name
      value: Rock1 (4)
      objectReference: {fileID: 0}
    - target: {fileID: 4243724423293762, guid: c07f24e35f07ce74ba43afa35d48adf7, type: 3}
      propertyPath: m_LocalPosition.x
      value: 227.62
      objectReference: {fileID: 0}
    - target: {fileID: 4243724423293762, guid: c07f24e35f07ce74ba43afa35d48adf7, type: 3}
      propertyPath: m_LocalPosition.y
      value: 0.8699999
      objectReference: {fileID: 0}
    - target: {fileID: 4243724423293762, guid: c07f24e35f07ce74ba43afa35d48adf7, type: 3}
      propertyPath: m_LocalPosition.z
      value: 274.6
      objectReference: {fileID: 0}
    - target: {fileID: 4243724423293762, guid: c07f24e35f07ce74ba43afa35d48adf7, type: 3}
      propertyPath: m_LocalRotation.x
      value: -0
      objectReference: {fileID: 0}
    - target: {fileID: 4243724423293762, guid: c07f24e35f07ce74ba43afa35d48adf7, type: 3}
      propertyPath: m_LocalRotation.y
      value: 0.35473704
      objectReference: {fileID: 0}
    - target: {fileID: 4243724423293762, guid: c07f24e35f07ce74ba43afa35d48adf7, type: 3}
      propertyPath: m_LocalRotation.z
      value: -0
      objectReference: {fileID: 0}
    - target: {fileID: 4243724423293762, guid: c07f24e35f07ce74ba43afa35d48adf7, type: 3}
      propertyPath: m_LocalRotation.w
      value: -0.93496615
      objectReference: {fileID: 0}
    - target: {fileID: 4243724423293762, guid: c07f24e35f07ce74ba43afa35d48adf7, type: 3}
      propertyPath: m_RootOrder
      value: 4
      objectReference: {fileID: 0}
    - target: {fileID: 4243724423293762, guid: c07f24e35f07ce74ba43afa35d48adf7, type: 3}
      propertyPath: m_LocalEulerAnglesHint.y
      value: 318.445
      objectReference: {fileID: 0}
    m_RemovedComponents: []
  m_SourcePrefab: {fileID: 100100000, guid: c07f24e35f07ce74ba43afa35d48adf7, type: 3}
--- !u!1 &426081490
GameObject:
  m_ObjectHideFlags: 0
  m_CorrespondingSourceObject: {fileID: 0}
  m_PrefabInstance: {fileID: 0}
  m_PrefabAsset: {fileID: 0}
  serializedVersion: 6
  m_Component:
  - component: {fileID: 426081491}
  - component: {fileID: 426081494}
  - component: {fileID: 426081493}
  - component: {fileID: 426081492}
  m_Layer: 0
  m_Name: Cube (1)
  m_TagString: Untagged
  m_Icon: {fileID: 0}
  m_NavMeshLayer: 0
  m_StaticEditorFlags: 4294967295
  m_IsActive: 1
--- !u!4 &426081491
Transform:
  m_ObjectHideFlags: 0
  m_CorrespondingSourceObject: {fileID: 0}
  m_PrefabInstance: {fileID: 0}
  m_PrefabAsset: {fileID: 0}
  m_GameObject: {fileID: 426081490}
  m_LocalRotation: {x: 0, y: 0.7071068, z: 0, w: 0.7071068}
  m_LocalPosition: {x: 257.4, y: 21.5, z: 438.7}
  m_LocalScale: {x: 1, y: 100, z: 500}
  m_Children: []
  m_Father: {fileID: 185862706}
  m_RootOrder: 1
  m_LocalEulerAnglesHint: {x: 0, y: 90, z: 0}
--- !u!23 &426081492
MeshRenderer:
  m_ObjectHideFlags: 0
  m_CorrespondingSourceObject: {fileID: 0}
  m_PrefabInstance: {fileID: 0}
  m_PrefabAsset: {fileID: 0}
  m_GameObject: {fileID: 426081490}
  m_Enabled: 0
  m_CastShadows: 1
  m_ReceiveShadows: 1
  m_DynamicOccludee: 1
  m_MotionVectors: 1
  m_LightProbeUsage: 1
  m_ReflectionProbeUsage: 1
  m_RayTracingMode: 2
  m_RenderingLayerMask: 1
  m_RendererPriority: 0
  m_Materials:
  - {fileID: 10303, guid: 0000000000000000f000000000000000, type: 0}
  m_StaticBatchInfo:
    firstSubMesh: 0
    subMeshCount: 0
  m_StaticBatchRoot: {fileID: 0}
  m_ProbeAnchor: {fileID: 0}
  m_LightProbeVolumeOverride: {fileID: 0}
  m_ScaleInLightmap: 1
  m_ReceiveGI: 1
  m_PreserveUVs: 1
  m_IgnoreNormalsForChartDetection: 0
  m_ImportantGI: 0
  m_StitchLightmapSeams: 1
  m_SelectedEditorRenderState: 3
  m_MinimumChartSize: 4
  m_AutoUVMaxDistance: 0.5
  m_AutoUVMaxAngle: 89
  m_LightmapParameters: {fileID: 0}
  m_SortingLayerID: 0
  m_SortingLayer: 0
  m_SortingOrder: 0
--- !u!65 &426081493
BoxCollider:
  m_ObjectHideFlags: 0
  m_CorrespondingSourceObject: {fileID: 0}
  m_PrefabInstance: {fileID: 0}
  m_PrefabAsset: {fileID: 0}
  m_GameObject: {fileID: 426081490}
  m_Material: {fileID: 0}
  m_IsTrigger: 0
  m_Enabled: 1
  serializedVersion: 2
  m_Size: {x: 1, y: 1, z: 1}
  m_Center: {x: 0, y: 0, z: 0}
--- !u!33 &426081494
MeshFilter:
  m_ObjectHideFlags: 0
  m_CorrespondingSourceObject: {fileID: 0}
  m_PrefabInstance: {fileID: 0}
  m_PrefabAsset: {fileID: 0}
  m_GameObject: {fileID: 426081490}
  m_Mesh: {fileID: 10202, guid: 0000000000000000e000000000000000, type: 0}
--- !u!1 &443947014
GameObject:
  m_ObjectHideFlags: 0
  m_CorrespondingSourceObject: {fileID: 0}
  m_PrefabInstance: {fileID: 0}
  m_PrefabAsset: {fileID: 0}
  serializedVersion: 6
  m_Component:
  - component: {fileID: 443947015}
  - component: {fileID: 443947018}
  - component: {fileID: 443947017}
  - component: {fileID: 443947016}
  m_Layer: 0
  m_Name: Cube (2)
  m_TagString: Untagged
  m_Icon: {fileID: 0}
  m_NavMeshLayer: 0
  m_StaticEditorFlags: 4294967295
  m_IsActive: 1
--- !u!4 &443947015
Transform:
  m_ObjectHideFlags: 0
  m_CorrespondingSourceObject: {fileID: 0}
  m_PrefabInstance: {fileID: 0}
  m_PrefabAsset: {fileID: 0}
  m_GameObject: {fileID: 443947014}
  m_LocalRotation: {x: -0, y: 0.7071068, z: -0, w: 0.7071068}
  m_LocalPosition: {x: 257.4, y: 21.5, z: 35.4}
  m_LocalScale: {x: 1.0000005, y: 100, z: 500.00037}
  m_Children: []
  m_Father: {fileID: 185862706}
  m_RootOrder: 2
  m_LocalEulerAnglesHint: {x: 0, y: 90, z: 0}
--- !u!23 &443947016
MeshRenderer:
  m_ObjectHideFlags: 0
  m_CorrespondingSourceObject: {fileID: 0}
  m_PrefabInstance: {fileID: 0}
  m_PrefabAsset: {fileID: 0}
  m_GameObject: {fileID: 443947014}
  m_Enabled: 0
  m_CastShadows: 1
  m_ReceiveShadows: 1
  m_DynamicOccludee: 1
  m_MotionVectors: 1
  m_LightProbeUsage: 1
  m_ReflectionProbeUsage: 1
  m_RayTracingMode: 2
  m_RenderingLayerMask: 1
  m_RendererPriority: 0
  m_Materials:
  - {fileID: 10303, guid: 0000000000000000f000000000000000, type: 0}
  m_StaticBatchInfo:
    firstSubMesh: 0
    subMeshCount: 0
  m_StaticBatchRoot: {fileID: 0}
  m_ProbeAnchor: {fileID: 0}
  m_LightProbeVolumeOverride: {fileID: 0}
  m_ScaleInLightmap: 1
  m_ReceiveGI: 1
  m_PreserveUVs: 1
  m_IgnoreNormalsForChartDetection: 0
  m_ImportantGI: 0
  m_StitchLightmapSeams: 1
  m_SelectedEditorRenderState: 3
  m_MinimumChartSize: 4
  m_AutoUVMaxDistance: 0.5
  m_AutoUVMaxAngle: 89
  m_LightmapParameters: {fileID: 0}
  m_SortingLayerID: 0
  m_SortingLayer: 0
  m_SortingOrder: 0
--- !u!65 &443947017
BoxCollider:
  m_ObjectHideFlags: 0
  m_CorrespondingSourceObject: {fileID: 0}
  m_PrefabInstance: {fileID: 0}
  m_PrefabAsset: {fileID: 0}
  m_GameObject: {fileID: 443947014}
  m_Material: {fileID: 0}
  m_IsTrigger: 0
  m_Enabled: 1
  serializedVersion: 2
  m_Size: {x: 1, y: 1, z: 1}
  m_Center: {x: 0, y: 0, z: 0}
--- !u!33 &443947018
MeshFilter:
  m_ObjectHideFlags: 0
  m_CorrespondingSourceObject: {fileID: 0}
  m_PrefabInstance: {fileID: 0}
  m_PrefabAsset: {fileID: 0}
  m_GameObject: {fileID: 443947014}
  m_Mesh: {fileID: 10202, guid: 0000000000000000e000000000000000, type: 0}
--- !u!4 &466665851 stripped
Transform:
  m_CorrespondingSourceObject: {fileID: 4243724423293762, guid: c07f24e35f07ce74ba43afa35d48adf7,
    type: 3}
  m_PrefabInstance: {fileID: 973539593}
  m_PrefabAsset: {fileID: 0}
--- !u!1001 &586193107
PrefabInstance:
  m_ObjectHideFlags: 0
  serializedVersion: 2
  m_Modification:
    m_TransformParent: {fileID: 144935740}
    m_Modifications:
    - target: {fileID: 1562119382739742, guid: c07f24e35f07ce74ba43afa35d48adf7, type: 3}
      propertyPath: m_Name
      value: Rock1 (5)
      objectReference: {fileID: 0}
    - target: {fileID: 4243724423293762, guid: c07f24e35f07ce74ba43afa35d48adf7, type: 3}
      propertyPath: m_LocalPosition.x
      value: 320.38
      objectReference: {fileID: 0}
    - target: {fileID: 4243724423293762, guid: c07f24e35f07ce74ba43afa35d48adf7, type: 3}
      propertyPath: m_LocalPosition.y
      value: 0.8499999
      objectReference: {fileID: 0}
    - target: {fileID: 4243724423293762, guid: c07f24e35f07ce74ba43afa35d48adf7, type: 3}
      propertyPath: m_LocalPosition.z
      value: 225.3
      objectReference: {fileID: 0}
    - target: {fileID: 4243724423293762, guid: c07f24e35f07ce74ba43afa35d48adf7, type: 3}
      propertyPath: m_LocalRotation.x
      value: -0
      objectReference: {fileID: 0}
    - target: {fileID: 4243724423293762, guid: c07f24e35f07ce74ba43afa35d48adf7, type: 3}
      propertyPath: m_LocalRotation.y
      value: 0.9876039
      objectReference: {fileID: 0}
    - target: {fileID: 4243724423293762, guid: c07f24e35f07ce74ba43afa35d48adf7, type: 3}
      propertyPath: m_LocalRotation.z
      value: -0
      objectReference: {fileID: 0}
    - target: {fileID: 4243724423293762, guid: c07f24e35f07ce74ba43afa35d48adf7, type: 3}
      propertyPath: m_LocalRotation.w
      value: 0.15696682
      objectReference: {fileID: 0}
    - target: {fileID: 4243724423293762, guid: c07f24e35f07ce74ba43afa35d48adf7, type: 3}
      propertyPath: m_RootOrder
      value: 5
      objectReference: {fileID: 0}
    - target: {fileID: 4243724423293762, guid: c07f24e35f07ce74ba43afa35d48adf7, type: 3}
      propertyPath: m_LocalScale.x
      value: 2.100002
      objectReference: {fileID: 0}
    - target: {fileID: 4243724423293762, guid: c07f24e35f07ce74ba43afa35d48adf7, type: 3}
      propertyPath: m_LocalScale.y
      value: 2.1
      objectReference: {fileID: 0}
    - target: {fileID: 4243724423293762, guid: c07f24e35f07ce74ba43afa35d48adf7, type: 3}
      propertyPath: m_LocalScale.z
      value: 2.100002
      objectReference: {fileID: 0}
    - target: {fileID: 4243724423293762, guid: c07f24e35f07ce74ba43afa35d48adf7, type: 3}
      propertyPath: m_LocalEulerAnglesHint.y
      value: 161.938
      objectReference: {fileID: 0}
    m_RemovedComponents: []
  m_SourcePrefab: {fileID: 100100000, guid: c07f24e35f07ce74ba43afa35d48adf7, type: 3}
--- !u!4 &763089204 stripped
Transform:
  m_CorrespondingSourceObject: {fileID: 4243724423293762, guid: c07f24e35f07ce74ba43afa35d48adf7,
    type: 3}
  m_PrefabInstance: {fileID: 254576822}
  m_PrefabAsset: {fileID: 0}
--- !u!4 &776582331 stripped
Transform:
  m_CorrespondingSourceObject: {fileID: 4243724423293762, guid: c07f24e35f07ce74ba43afa35d48adf7,
    type: 3}
  m_PrefabInstance: {fileID: 929449791}
  m_PrefabAsset: {fileID: 0}
--- !u!1001 &777749184
PrefabInstance:
  m_ObjectHideFlags: 0
  serializedVersion: 2
  m_Modification:
    m_TransformParent: {fileID: 144935740}
    m_Modifications:
    - target: {fileID: 1562119382739742, guid: c07f24e35f07ce74ba43afa35d48adf7, type: 3}
      propertyPath: m_Name
      value: Rock1 (8)
      objectReference: {fileID: 0}
    - target: {fileID: 4243724423293762, guid: c07f24e35f07ce74ba43afa35d48adf7, type: 3}
      propertyPath: m_LocalPosition.x
      value: 366.46
      objectReference: {fileID: 0}
    - target: {fileID: 4243724423293762, guid: c07f24e35f07ce74ba43afa35d48adf7, type: 3}
      propertyPath: m_LocalPosition.y
      value: 1.6500001
      objectReference: {fileID: 0}
    - target: {fileID: 4243724423293762, guid: c07f24e35f07ce74ba43afa35d48adf7, type: 3}
      propertyPath: m_LocalPosition.z
      value: 264.36
      objectReference: {fileID: 0}
    - target: {fileID: 4243724423293762, guid: c07f24e35f07ce74ba43afa35d48adf7, type: 3}
      propertyPath: m_LocalRotation.x
      value: -0
      objectReference: {fileID: 0}
    - target: {fileID: 4243724423293762, guid: c07f24e35f07ce74ba43afa35d48adf7, type: 3}
      propertyPath: m_LocalRotation.y
      value: 0.9876039
      objectReference: {fileID: 0}
    - target: {fileID: 4243724423293762, guid: c07f24e35f07ce74ba43afa35d48adf7, type: 3}
      propertyPath: m_LocalRotation.z
      value: -0
      objectReference: {fileID: 0}
    - target: {fileID: 4243724423293762, guid: c07f24e35f07ce74ba43afa35d48adf7, type: 3}
      propertyPath: m_LocalRotation.w
      value: 0.15696682
      objectReference: {fileID: 0}
    - target: {fileID: 4243724423293762, guid: c07f24e35f07ce74ba43afa35d48adf7, type: 3}
      propertyPath: m_RootOrder
      value: 8
      objectReference: {fileID: 0}
    - target: {fileID: 4243724423293762, guid: c07f24e35f07ce74ba43afa35d48adf7, type: 3}
      propertyPath: m_LocalScale.x
      value: 2.100002
      objectReference: {fileID: 0}
    - target: {fileID: 4243724423293762, guid: c07f24e35f07ce74ba43afa35d48adf7, type: 3}
      propertyPath: m_LocalScale.y
      value: 2.1
      objectReference: {fileID: 0}
    - target: {fileID: 4243724423293762, guid: c07f24e35f07ce74ba43afa35d48adf7, type: 3}
      propertyPath: m_LocalScale.z
      value: 2.100002
      objectReference: {fileID: 0}
    - target: {fileID: 4243724423293762, guid: c07f24e35f07ce74ba43afa35d48adf7, type: 3}
      propertyPath: m_LocalEulerAnglesHint.y
      value: 161.938
      objectReference: {fileID: 0}
    m_RemovedComponents: []
  m_SourcePrefab: {fileID: 100100000, guid: c07f24e35f07ce74ba43afa35d48adf7, type: 3}
--- !u!4 &809334421 stripped
Transform:
  m_CorrespondingSourceObject: {fileID: 4243724423293762, guid: c07f24e35f07ce74ba43afa35d48adf7,
    type: 3}
  m_PrefabInstance: {fileID: 375198324}
  m_PrefabAsset: {fileID: 0}
--- !u!1001 &929449791
PrefabInstance:
  m_ObjectHideFlags: 0
  serializedVersion: 2
  m_Modification:
    m_TransformParent: {fileID: 144935740}
    m_Modifications:
    - target: {fileID: 4243724423293762, guid: c07f24e35f07ce74ba43afa35d48adf7, type: 3}
      propertyPath: m_LocalPosition.x
      value: 282.21
      objectReference: {fileID: 0}
    - target: {fileID: 4243724423293762, guid: c07f24e35f07ce74ba43afa35d48adf7, type: 3}
      propertyPath: m_LocalPosition.y
      value: 1.1199999
      objectReference: {fileID: 0}
    - target: {fileID: 4243724423293762, guid: c07f24e35f07ce74ba43afa35d48adf7, type: 3}
      propertyPath: m_LocalPosition.z
      value: 232.69
      objectReference: {fileID: 0}
    - target: {fileID: 4243724423293762, guid: c07f24e35f07ce74ba43afa35d48adf7, type: 3}
      propertyPath: m_LocalRotation.x
      value: -0
      objectReference: {fileID: 0}
    - target: {fileID: 4243724423293762, guid: c07f24e35f07ce74ba43afa35d48adf7, type: 3}
      propertyPath: m_LocalRotation.y
      value: 0.5284585
      objectReference: {fileID: 0}
    - target: {fileID: 4243724423293762, guid: c07f24e35f07ce74ba43afa35d48adf7, type: 3}
      propertyPath: m_LocalRotation.z
      value: -0
      objectReference: {fileID: 0}
    - target: {fileID: 4243724423293762, guid: c07f24e35f07ce74ba43afa35d48adf7, type: 3}
      propertyPath: m_LocalRotation.w
      value: 0.84895915
      objectReference: {fileID: 0}
    - target: {fileID: 4243724423293762, guid: c07f24e35f07ce74ba43afa35d48adf7, type: 3}
      propertyPath: m_RootOrder
      value: 0
      objectReference: {fileID: 0}
    - target: {fileID: 4243724423293762, guid: c07f24e35f07ce74ba43afa35d48adf7, type: 3}
      propertyPath: m_LocalScale.x
      value: 2.1
      objectReference: {fileID: 0}
    - target: {fileID: 4243724423293762, guid: c07f24e35f07ce74ba43afa35d48adf7, type: 3}
      propertyPath: m_LocalScale.y
      value: 2.1
      objectReference: {fileID: 0}
    - target: {fileID: 4243724423293762, guid: c07f24e35f07ce74ba43afa35d48adf7, type: 3}
      propertyPath: m_LocalScale.z
      value: 2.1
      objectReference: {fileID: 0}
    - target: {fileID: 4243724423293762, guid: c07f24e35f07ce74ba43afa35d48adf7, type: 3}
      propertyPath: m_LocalEulerAnglesHint.y
      value: 63.803
      objectReference: {fileID: 0}
    m_RemovedComponents: []
  m_SourcePrefab: {fileID: 100100000, guid: c07f24e35f07ce74ba43afa35d48adf7, type: 3}
--- !u!1 &970556038
GameObject:
  m_ObjectHideFlags: 0
  m_CorrespondingSourceObject: {fileID: 0}
  m_PrefabInstance: {fileID: 0}
  m_PrefabAsset: {fileID: 0}
  serializedVersion: 6
  m_Component:
  - component: {fileID: 970556041}
  - component: {fileID: 970556040}
  - component: {fileID: 970556039}
  m_Layer: 0
  m_Name: Terrain
  m_TagString: Untagged
  m_Icon: {fileID: 0}
  m_NavMeshLayer: 0
  m_StaticEditorFlags: 4294967295
  m_IsActive: 1
--- !u!154 &970556039
TerrainCollider:
  m_ObjectHideFlags: 0
  m_CorrespondingSourceObject: {fileID: 0}
  m_PrefabInstance: {fileID: 0}
  m_PrefabAsset: {fileID: 0}
  m_GameObject: {fileID: 970556038}
  m_Material: {fileID: 0}
  m_Enabled: 1
  m_TerrainData: {fileID: 15600000, guid: 8ee04e1f17f7f5549acabd4c8d8a68c4, type: 2}
  m_EnableTreeColliders: 1
--- !u!218 &970556040
Terrain:
  m_ObjectHideFlags: 0
  m_CorrespondingSourceObject: {fileID: 0}
  m_PrefabInstance: {fileID: 0}
  m_PrefabAsset: {fileID: 0}
  m_GameObject: {fileID: 970556038}
  m_Enabled: 1
  serializedVersion: 6
  m_TerrainData: {fileID: 15600000, guid: 8ee04e1f17f7f5549acabd4c8d8a68c4, type: 2}
  m_TreeDistance: 2000
  m_TreeBillboardDistance: 80
  m_TreeCrossFadeLength: 5
  m_TreeMaximumFullLODCount: 15
  m_DetailObjectDistance: 60
  m_DetailObjectDensity: 1
  m_HeightmapPixelError: 10
  m_SplatMapDistance: 1000
  m_HeightmapMaximumLOD: 0
  m_ShadowCastingMode: 2
  m_DrawHeightmap: 1
  m_DrawInstanced: 0
  m_DrawTreesAndFoliage: 1
  m_ReflectionProbeUsage: 1
  m_MaterialTemplate: {fileID: 10650, guid: 0000000000000000f000000000000000, type: 0}
  m_BakeLightProbesForTrees: 1
  m_PreserveTreePrototypeLayers: 0
  m_DeringLightProbesForTrees: 1
  m_ScaleInLightmap: 0.0512
  m_LightmapParameters: {fileID: 15203, guid: 0000000000000000f000000000000000, type: 0}
  m_GroupingID: 0
  m_RenderingLayerMask: 1
  m_AllowAutoConnect: 0
--- !u!4 &970556041
Transform:
  m_ObjectHideFlags: 0
  m_CorrespondingSourceObject: {fileID: 0}
  m_PrefabInstance: {fileID: 0}
  m_PrefabAsset: {fileID: 0}
  m_GameObject: {fileID: 970556038}
  m_LocalRotation: {x: -0, y: -0, z: -0, w: 1}
  m_LocalPosition: {x: 0, y: 0, z: 0}
  m_LocalScale: {x: 1, y: 1, z: 1}
  m_Children: []
  m_Father: {fileID: 1174709690}
  m_RootOrder: 2
  m_LocalEulerAnglesHint: {x: 0, y: 0, z: 0}
--- !u!1001 &973539593
PrefabInstance:
  m_ObjectHideFlags: 0
  serializedVersion: 2
  m_Modification:
    m_TransformParent: {fileID: 144935740}
    m_Modifications:
    - target: {fileID: 1562119382739742, guid: c07f24e35f07ce74ba43afa35d48adf7, type: 3}
      propertyPath: m_Name
      value: Rock1 (6)
      objectReference: {fileID: 0}
    - target: {fileID: 4243724423293762, guid: c07f24e35f07ce74ba43afa35d48adf7, type: 3}
      propertyPath: m_LocalPosition.x
      value: 295.6
      objectReference: {fileID: 0}
    - target: {fileID: 4243724423293762, guid: c07f24e35f07ce74ba43afa35d48adf7, type: 3}
      propertyPath: m_LocalPosition.y
      value: 3.4700003
      objectReference: {fileID: 0}
    - target: {fileID: 4243724423293762, guid: c07f24e35f07ce74ba43afa35d48adf7, type: 3}
      propertyPath: m_LocalPosition.z
      value: 285.4
      objectReference: {fileID: 0}
    - target: {fileID: 4243724423293762, guid: c07f24e35f07ce74ba43afa35d48adf7, type: 3}
      propertyPath: m_LocalRotation.x
      value: -0
      objectReference: {fileID: 0}
    - target: {fileID: 4243724423293762, guid: c07f24e35f07ce74ba43afa35d48adf7, type: 3}
      propertyPath: m_LocalRotation.y
      value: 0.5284585
      objectReference: {fileID: 0}
    - target: {fileID: 4243724423293762, guid: c07f24e35f07ce74ba43afa35d48adf7, type: 3}
      propertyPath: m_LocalRotation.z
      value: -0
      objectReference: {fileID: 0}
    - target: {fileID: 4243724423293762, guid: c07f24e35f07ce74ba43afa35d48adf7, type: 3}
      propertyPath: m_LocalRotation.w
      value: 0.84895915
      objectReference: {fileID: 0}
    - target: {fileID: 4243724423293762, guid: c07f24e35f07ce74ba43afa35d48adf7, type: 3}
      propertyPath: m_RootOrder
      value: 6
      objectReference: {fileID: 0}
    - target: {fileID: 4243724423293762, guid: c07f24e35f07ce74ba43afa35d48adf7, type: 3}
      propertyPath: m_LocalScale.x
      value: 2.1
      objectReference: {fileID: 0}
    - target: {fileID: 4243724423293762, guid: c07f24e35f07ce74ba43afa35d48adf7, type: 3}
      propertyPath: m_LocalScale.y
      value: 2.1
      objectReference: {fileID: 0}
    - target: {fileID: 4243724423293762, guid: c07f24e35f07ce74ba43afa35d48adf7, type: 3}
      propertyPath: m_LocalScale.z
      value: 2.1
      objectReference: {fileID: 0}
    - target: {fileID: 4243724423293762, guid: c07f24e35f07ce74ba43afa35d48adf7, type: 3}
      propertyPath: m_LocalEulerAnglesHint.y
      value: 63.803
      objectReference: {fileID: 0}
    m_RemovedComponents: []
  m_SourcePrefab: {fileID: 100100000, guid: c07f24e35f07ce74ba43afa35d48adf7, type: 3}
--- !u!4 &974865241 stripped
Transform:
  m_CorrespondingSourceObject: {fileID: 4243724423293762, guid: c07f24e35f07ce74ba43afa35d48adf7,
    type: 3}
  m_PrefabInstance: {fileID: 351206198}
  m_PrefabAsset: {fileID: 0}
--- !u!4 &1111172249 stripped
Transform:
  m_CorrespondingSourceObject: {fileID: 4243724423293762, guid: c07f24e35f07ce74ba43afa35d48adf7,
    type: 3}
  m_PrefabInstance: {fileID: 43025617}
  m_PrefabAsset: {fileID: 0}
--- !u!1 &1174709689
GameObject:
  m_ObjectHideFlags: 0
  m_CorrespondingSourceObject: {fileID: 0}
  m_PrefabInstance: {fileID: 0}
  m_PrefabAsset: {fileID: 0}
  serializedVersion: 6
  m_Component:
  - component: {fileID: 1174709690}
  m_Layer: 0
  m_Name: Environments
  m_TagString: Untagged
  m_Icon: {fileID: 0}
  m_NavMeshLayer: 0
  m_StaticEditorFlags: 0
  m_IsActive: 1
--- !u!4 &1174709690
Transform:
  m_ObjectHideFlags: 0
  m_CorrespondingSourceObject: {fileID: 0}
  m_PrefabInstance: {fileID: 0}
  m_PrefabAsset: {fileID: 0}
  m_GameObject: {fileID: 1174709689}
  m_LocalRotation: {x: 0, y: 0, z: 0, w: 1}
  m_LocalPosition: {x: 0, y: 0, z: 0}
  m_LocalScale: {x: 1, y: 1, z: 1}
  m_Children:
  - {fileID: 144935740}
  - {fileID: 1374169897}
  - {fileID: 970556041}
  m_Father: {fileID: 0}
  m_RootOrder: 2
  m_LocalEulerAnglesHint: {x: 0, y: 0, z: 0}
--- !u!1 &1372618687
GameObject:
  m_ObjectHideFlags: 0
  m_CorrespondingSourceObject: {fileID: 0}
  m_PrefabInstance: {fileID: 0}
  m_PrefabAsset: {fileID: 0}
  serializedVersion: 6
  m_Component:
  - component: {fileID: 1372618692}
  - component: {fileID: 1372618691}
  - component: {fileID: 1372618689}
  - component: {fileID: 1372618688}
  m_Layer: 0
  m_Name: Main Camera
  m_TagString: MainCamera
  m_Icon: {fileID: 0}
  m_NavMeshLayer: 0
  m_StaticEditorFlags: 0
  m_IsActive: 1
--- !u!81 &1372618688
AudioListener:
  m_ObjectHideFlags: 0
  m_CorrespondingSourceObject: {fileID: 0}
  m_PrefabInstance: {fileID: 0}
  m_PrefabAsset: {fileID: 0}
  m_GameObject: {fileID: 1372618687}
  m_Enabled: 1
--- !u!124 &1372618689
Behaviour:
  m_ObjectHideFlags: 0
  m_CorrespondingSourceObject: {fileID: 0}
  m_PrefabInstance: {fileID: 0}
  m_PrefabAsset: {fileID: 0}
  m_GameObject: {fileID: 1372618687}
  m_Enabled: 1
--- !u!20 &1372618691
Camera:
  m_ObjectHideFlags: 0
  m_CorrespondingSourceObject: {fileID: 0}
  m_PrefabInstance: {fileID: 0}
  m_PrefabAsset: {fileID: 0}
  m_GameObject: {fileID: 1372618687}
  m_Enabled: 1
  serializedVersion: 2
  m_ClearFlags: 1
  m_BackGroundColor: {r: 0.19215687, g: 0.3019608, b: 0.4745098, a: 0}
  m_projectionMatrixMode: 1
  m_GateFitMode: 2
  m_FOVAxisMode: 0
  m_SensorSize: {x: 36, y: 24}
  m_LensShift: {x: 0, y: 0}
  m_FocalLength: 50
  m_NormalizedViewPortRect:
    serializedVersion: 2
    x: 0
    y: 0
    width: 1
    height: 1
  near clip plane: 0.3
  far clip plane: 1000
  field of view: 60
  orthographic: 0
  orthographic size: 5
  m_Depth: -1
  m_CullingMask:
    serializedVersion: 2
    m_Bits: 4294967295
  m_RenderingPath: -1
  m_TargetTexture: {fileID: 0}
  m_TargetDisplay: 0
  m_TargetEye: 3
  m_HDR: 1
  m_AllowMSAA: 1
  m_AllowDynamicResolution: 0
  m_ForceIntoRT: 0
  m_OcclusionCulling: 1
  m_StereoConvergence: 10
  m_StereoSeparation: 0.022
--- !u!4 &1372618692
Transform:
  m_ObjectHideFlags: 0
  m_CorrespondingSourceObject: {fileID: 0}
  m_PrefabInstance: {fileID: 0}
  m_PrefabAsset: {fileID: 0}
  m_GameObject: {fileID: 1372618687}
  m_LocalRotation: {x: 0.029474257, y: -0.14113529, z: -0.004709659, w: 0.9895403}
  m_LocalPosition: {x: 265.4, y: 3.89, z: 169.37}
  m_LocalScale: {x: 1, y: 1, z: 1}
  m_Children: []
  m_Father: {fileID: 0}
  m_RootOrder: 0
  m_LocalEulerAnglesHint: {x: 3.2680001, y: -16.263, z: -1.0120001}
--- !u!1 &1374169895
GameObject:
  m_ObjectHideFlags: 0
  m_CorrespondingSourceObject: {fileID: 0}
  m_PrefabInstance: {fileID: 0}
  m_PrefabAsset: {fileID: 0}
  serializedVersion: 6
  m_Component:
  - component: {fileID: 1374169897}
  - component: {fileID: 1374169896}
  m_Layer: 0
  m_Name: WindZone
  m_TagString: Untagged
  m_Icon: {fileID: 0}
  m_NavMeshLayer: 0
  m_StaticEditorFlags: 0
  m_IsActive: 1
--- !u!182 &1374169896
WindZone:
  m_ObjectHideFlags: 0
  m_CorrespondingSourceObject: {fileID: 0}
  m_PrefabInstance: {fileID: 0}
  m_PrefabAsset: {fileID: 0}
  m_GameObject: {fileID: 1374169895}
  m_Enabled: 1
  m_Mode: 0
  m_Radius: 20
  m_WindMain: 0.5
  m_WindTurbulence: 0.1
  m_WindPulseMagnitude: 0.8
  m_WindPulseFrequency: 0.5
--- !u!4 &1374169897
Transform:
  m_ObjectHideFlags: 0
  m_CorrespondingSourceObject: {fileID: 0}
  m_PrefabInstance: {fileID: 0}
  m_PrefabAsset: {fileID: 0}
  m_GameObject: {fileID: 1374169895}
  m_LocalRotation: {x: -0, y: -0, z: -0, w: 1}
  m_LocalPosition: {x: 0, y: 0, z: 0}
  m_LocalScale: {x: 1, y: 1, z: 1}
  m_Children: []
  m_Father: {fileID: 1174709690}
  m_RootOrder: 1
  m_LocalEulerAnglesHint: {x: 0, y: 0, z: 0}
--- !u!1 &1499058511
GameObject:
  m_ObjectHideFlags: 0
  m_CorrespondingSourceObject: {fileID: 0}
  m_PrefabInstance: {fileID: 0}
  m_PrefabAsset: {fileID: 0}
  serializedVersion: 6
  m_Component:
  - component: {fileID: 1499058512}
  - component: {fileID: 1499058515}
  - component: {fileID: 1499058514}
  - component: {fileID: 1499058513}
  m_Layer: 0
  m_Name: Cube (3)
  m_TagString: Untagged
  m_Icon: {fileID: 0}
  m_NavMeshLayer: 0
  m_StaticEditorFlags: 4294967295
  m_IsActive: 1
--- !u!4 &1499058512
Transform:
  m_ObjectHideFlags: 0
  m_CorrespondingSourceObject: {fileID: 0}
  m_PrefabInstance: {fileID: 0}
  m_PrefabAsset: {fileID: 0}
  m_GameObject: {fileID: 1499058511}
  m_LocalRotation: {x: -0, y: -0, z: -0, w: 1}
  m_LocalPosition: {x: 448.3, y: 21.5, z: 250}
  m_LocalScale: {x: 1, y: 100, z: 500}
  m_Children: []
  m_Father: {fileID: 185862706}
  m_RootOrder: 3
  m_LocalEulerAnglesHint: {x: 0, y: 0, z: 0}
--- !u!23 &1499058513
MeshRenderer:
  m_ObjectHideFlags: 0
  m_CorrespondingSourceObject: {fileID: 0}
  m_PrefabInstance: {fileID: 0}
  m_PrefabAsset: {fileID: 0}
  m_GameObject: {fileID: 1499058511}
  m_Enabled: 0
  m_CastShadows: 1
  m_ReceiveShadows: 1
  m_DynamicOccludee: 1
  m_MotionVectors: 1
  m_LightProbeUsage: 1
  m_ReflectionProbeUsage: 1
  m_RayTracingMode: 2
  m_RenderingLayerMask: 1
  m_RendererPriority: 0
  m_Materials:
  - {fileID: 10303, guid: 0000000000000000f000000000000000, type: 0}
  m_StaticBatchInfo:
    firstSubMesh: 0
    subMeshCount: 0
  m_StaticBatchRoot: {fileID: 0}
  m_ProbeAnchor: {fileID: 0}
  m_LightProbeVolumeOverride: {fileID: 0}
  m_ScaleInLightmap: 1
  m_ReceiveGI: 1
  m_PreserveUVs: 1
  m_IgnoreNormalsForChartDetection: 0
  m_ImportantGI: 0
  m_StitchLightmapSeams: 1
  m_SelectedEditorRenderState: 3
  m_MinimumChartSize: 4
  m_AutoUVMaxDistance: 0.5
  m_AutoUVMaxAngle: 89
  m_LightmapParameters: {fileID: 0}
  m_SortingLayerID: 0
  m_SortingLayer: 0
  m_SortingOrder: 0
--- !u!65 &1499058514
BoxCollider:
  m_ObjectHideFlags: 0
  m_CorrespondingSourceObject: {fileID: 0}
  m_PrefabInstance: {fileID: 0}
  m_PrefabAsset: {fileID: 0}
  m_GameObject: {fileID: 1499058511}
  m_Material: {fileID: 0}
  m_IsTrigger: 0
  m_Enabled: 1
  serializedVersion: 2
  m_Size: {x: 1, y: 1, z: 1}
  m_Center: {x: 0, y: 0, z: 0}
--- !u!33 &1499058515
MeshFilter:
  m_ObjectHideFlags: 0
  m_CorrespondingSourceObject: {fileID: 0}
  m_PrefabInstance: {fileID: 0}
  m_PrefabAsset: {fileID: 0}
  m_GameObject: {fileID: 1499058511}
  m_Mesh: {fileID: 10202, guid: 0000000000000000e000000000000000, type: 0}
--- !u!1 &1958515454
GameObject:
  m_ObjectHideFlags: 0
  m_CorrespondingSourceObject: {fileID: 0}
  m_PrefabInstance: {fileID: 0}
  m_PrefabAsset: {fileID: 0}
  serializedVersion: 6
  m_Component:
  - component: {fileID: 1958515458}
  - component: {fileID: 1958515457}
  - component: {fileID: 1958515456}
  - component: {fileID: 1958515455}
  m_Layer: 0
  m_Name: Cube
  m_TagString: Untagged
  m_Icon: {fileID: 0}
  m_NavMeshLayer: 0
  m_StaticEditorFlags: 4294967295
  m_IsActive: 1
--- !u!23 &1958515455
MeshRenderer:
  m_ObjectHideFlags: 0
  m_CorrespondingSourceObject: {fileID: 0}
  m_PrefabInstance: {fileID: 0}
  m_PrefabAsset: {fileID: 0}
  m_GameObject: {fileID: 1958515454}
  m_Enabled: 0
  m_CastShadows: 1
  m_ReceiveShadows: 1
  m_DynamicOccludee: 1
  m_MotionVectors: 1
  m_LightProbeUsage: 1
  m_ReflectionProbeUsage: 1
  m_RayTracingMode: 2
  m_RenderingLayerMask: 1
  m_RendererPriority: 0
  m_Materials:
  - {fileID: 10303, guid: 0000000000000000f000000000000000, type: 0}
  m_StaticBatchInfo:
    firstSubMesh: 0
    subMeshCount: 0
  m_StaticBatchRoot: {fileID: 0}
  m_ProbeAnchor: {fileID: 0}
  m_LightProbeVolumeOverride: {fileID: 0}
  m_ScaleInLightmap: 1
  m_ReceiveGI: 1
  m_PreserveUVs: 1
  m_IgnoreNormalsForChartDetection: 0
  m_ImportantGI: 0
  m_StitchLightmapSeams: 1
  m_SelectedEditorRenderState: 3
  m_MinimumChartSize: 4
  m_AutoUVMaxDistance: 0.5
  m_AutoUVMaxAngle: 89
  m_LightmapParameters: {fileID: 0}
  m_SortingLayerID: 0
  m_SortingLayer: 0
  m_SortingOrder: 0
--- !u!65 &1958515456
BoxCollider:
  m_ObjectHideFlags: 0
  m_CorrespondingSourceObject: {fileID: 0}
  m_PrefabInstance: {fileID: 0}
  m_PrefabAsset: {fileID: 0}
  m_GameObject: {fileID: 1958515454}
  m_Material: {fileID: 0}
  m_IsTrigger: 0
  m_Enabled: 1
  serializedVersion: 2
  m_Size: {x: 1, y: 1, z: 1}
  m_Center: {x: 0, y: 0, z: 0}
--- !u!33 &1958515457
MeshFilter:
  m_ObjectHideFlags: 0
  m_CorrespondingSourceObject: {fileID: 0}
  m_PrefabInstance: {fileID: 0}
  m_PrefabAsset: {fileID: 0}
  m_GameObject: {fileID: 1958515454}
  m_Mesh: {fileID: 10202, guid: 0000000000000000e000000000000000, type: 0}
--- !u!4 &1958515458
Transform:
  m_ObjectHideFlags: 0
  m_CorrespondingSourceObject: {fileID: 0}
  m_PrefabInstance: {fileID: 0}
  m_PrefabAsset: {fileID: 0}
  m_GameObject: {fileID: 1958515454}
  m_LocalRotation: {x: -0, y: -0, z: -0, w: 1}
  m_LocalPosition: {x: 56.2, y: 21.5, z: 250}
  m_LocalScale: {x: 1, y: 100, z: 500}
  m_Children: []
  m_Father: {fileID: 185862706}
  m_RootOrder: 0
  m_LocalEulerAnglesHint: {x: 0, y: 0, z: 0}
--- !u!1001 &1964260479
PrefabInstance:
  m_ObjectHideFlags: 0
  serializedVersion: 2
  m_Modification:
    m_TransformParent: {fileID: 144935740}
    m_Modifications:
    - target: {fileID: 1562119382739742, guid: c07f24e35f07ce74ba43afa35d48adf7, type: 3}
      propertyPath: m_Name
      value: Rock1 (7)
      objectReference: {fileID: 0}
    - target: {fileID: 4243724423293762, guid: c07f24e35f07ce74ba43afa35d48adf7, type: 3}
      propertyPath: m_LocalPosition.x
      value: 255.4
      objectReference: {fileID: 0}
    - target: {fileID: 4243724423293762, guid: c07f24e35f07ce74ba43afa35d48adf7, type: 3}
      propertyPath: m_LocalPosition.y
      value: 1.0900002
      objectReference: {fileID: 0}
    - target: {fileID: 4243724423293762, guid: c07f24e35f07ce74ba43afa35d48adf7, type: 3}
      propertyPath: m_LocalPosition.z
      value: 140
      objectReference: {fileID: 0}
    - target: {fileID: 4243724423293762, guid: c07f24e35f07ce74ba43afa35d48adf7, type: 3}
      propertyPath: m_LocalRotation.x
      value: -0
      objectReference: {fileID: 0}
    - target: {fileID: 4243724423293762, guid: c07f24e35f07ce74ba43afa35d48adf7, type: 3}
      propertyPath: m_LocalRotation.y
      value: 0.9876039
      objectReference: {fileID: 0}
    - target: {fileID: 4243724423293762, guid: c07f24e35f07ce74ba43afa35d48adf7, type: 3}
      propertyPath: m_LocalRotation.z
      value: -0
      objectReference: {fileID: 0}
    - target: {fileID: 4243724423293762, guid: c07f24e35f07ce74ba43afa35d48adf7, type: 3}
      propertyPath: m_LocalRotation.w
      value: 0.15696682
      objectReference: {fileID: 0}
    - target: {fileID: 4243724423293762, guid: c07f24e35f07ce74ba43afa35d48adf7, type: 3}
      propertyPath: m_RootOrder
      value: 7
      objectReference: {fileID: 0}
    - target: {fileID: 4243724423293762, guid: c07f24e35f07ce74ba43afa35d48adf7, type: 3}
      propertyPath: m_LocalScale.x
      value: 2.100002
      objectReference: {fileID: 0}
    - target: {fileID: 4243724423293762, guid: c07f24e35f07ce74ba43afa35d48adf7, type: 3}
      propertyPath: m_LocalScale.y
      value: 2.1
      objectReference: {fileID: 0}
    - target: {fileID: 4243724423293762, guid: c07f24e35f07ce74ba43afa35d48adf7, type: 3}
      propertyPath: m_LocalScale.z
      value: 2.100002
      objectReference: {fileID: 0}
    - target: {fileID: 4243724423293762, guid: c07f24e35f07ce74ba43afa35d48adf7, type: 3}
      propertyPath: m_LocalEulerAnglesHint.y
      value: 161.938
      objectReference: {fileID: 0}
    m_RemovedComponents: []
  m_SourcePrefab: {fileID: 100100000, guid: c07f24e35f07ce74ba43afa35d48adf7, type: 3}
--- !u!1 &2003931975
GameObject:
  m_ObjectHideFlags: 0
  m_CorrespondingSourceObject: {fileID: 0}
  m_PrefabInstance: {fileID: 0}
  m_PrefabAsset: {fileID: 0}
  serializedVersion: 6
  m_Component:
  - component: {fileID: 2003931977}
  - component: {fileID: 2003931976}
  m_Layer: 0
  m_Name: Directional Light
  m_TagString: Untagged
  m_Icon: {fileID: 0}
  m_NavMeshLayer: 0
  m_StaticEditorFlags: 0
  m_IsActive: 1
--- !u!108 &2003931976
Light:
  m_ObjectHideFlags: 0
  m_CorrespondingSourceObject: {fileID: 0}
  m_PrefabInstance: {fileID: 0}
  m_PrefabAsset: {fileID: 0}
  m_GameObject: {fileID: 2003931975}
  m_Enabled: 1
  serializedVersion: 10
  m_Type: 1
  m_Shape: 0
  m_Color: {r: 1, g: 0.953, b: 0.803, a: 1}
  m_Intensity: 1.1
  m_Range: 10
  m_SpotAngle: 30
  m_InnerSpotAngle: 21.80208
  m_CookieSize: 5
  m_Shadows:
    m_Type: 2
    m_Resolution: 1
    m_CustomResolution: -1
    m_Strength: 1
    m_Bias: 0.05
    m_NormalBias: 0.32
    m_NearPlane: 0.2
    m_CullingMatrixOverride:
      e00: 1
      e01: 0
      e02: 0
      e03: 0
      e10: 0
      e11: 1
      e12: 0
      e13: 0
      e20: 0
      e21: 0
      e22: 1
      e23: 0
      e30: 0
      e31: 0
      e32: 0
      e33: 1
    m_UseCullingMatrixOverride: 0
  m_Cookie: {fileID: 0}
  m_DrawHalo: 0
  m_Flare: {fileID: 0}
  m_RenderMode: 0
  m_CullingMask:
    serializedVersion: 2
    m_Bits: 4294967295
  m_RenderingLayerMask: 1
  m_Lightmapping: 4
  m_LightShadowCasterMode: 0
  m_AreaSize: {x: 1, y: 1}
  m_BounceIntensity: 1
  m_ColorTemperature: 6570
  m_UseColorTemperature: 0
  m_BoundingSphereOverride: {x: 0, y: 0, z: 0, w: 0}
  m_UseBoundingSphereOverride: 0
  m_ShadowRadius: 0
  m_ShadowAngle: 0
--- !u!4 &2003931977
Transform:
  m_ObjectHideFlags: 0
  m_CorrespondingSourceObject: {fileID: 0}
  m_PrefabInstance: {fileID: 0}
  m_PrefabAsset: {fileID: 0}
  m_GameObject: {fileID: 2003931975}
  m_LocalRotation: {x: 0.40821788, y: -0.23456968, z: 0.10938163, w: 0.8754261}
  m_LocalPosition: {x: 0, y: 3, z: 0}
  m_LocalScale: {x: 1, y: 1, z: 1}
  m_Children: []
  m_Father: {fileID: 0}
  m_RootOrder: 1
  m_LocalEulerAnglesHint: {x: 50, y: -30, z: 0}
--- !u!4 &2075207863 stripped
Transform:
  m_CorrespondingSourceObject: {fileID: 4243724423293762, guid: c07f24e35f07ce74ba43afa35d48adf7,
    type: 3}
  m_PrefabInstance: {fileID: 586193107}
  m_PrefabAsset: {fileID: 0}
