%YAML 1.1
%TAG !u! tag:unity3d.com,2011:
--- !u!1 &5706339456705505898
GameObject:
  m_ObjectHideFlags: 0
  m_CorrespondingSourceObject: {fileID: 0}
  m_PrefabInstance: {fileID: 0}
  m_PrefabAsset: {fileID: 0}
  serializedVersion: 6
  m_Component:
  - component: {fileID: 5706339456705505901}
  - component: {fileID: 1664956316341460969}
  m_Layer: 0
  m_Name: GGJ2020_Char_SkeletonSkull_Pass1_02
  m_TagString: Untagged
  m_Icon: {fileID: 0}
  m_NavMeshLayer: 0
  m_StaticEditorFlags: 0
  m_IsActive: 1
--- !u!4 &5706339456705505901
Transform:
  m_ObjectHideFlags: 0
  m_CorrespondingSourceObject: {fileID: 0}
  m_PrefabInstance: {fileID: 0}
  m_PrefabAsset: {fileID: 0}
  m_GameObject: {fileID: 5706339456705505898}
  m_LocalRotation: {x: 0, y: 0, z: 0, w: 1}
  m_LocalPosition: {x: 0, y: 0, z: 0}
  m_LocalScale: {x: 1, y: 1, z: 1}
  m_Children:
  - {fileID: 741485688626366868}
  m_Father: {fileID: 0}
  m_RootOrder: 0
  m_LocalEulerAnglesHint: {x: 0, y: 0, z: 0}
--- !u!95 &1664956316341460969
Animator:
  serializedVersion: 3
  m_ObjectHideFlags: 0
  m_CorrespondingSourceObject: {fileID: 0}
  m_PrefabInstance: {fileID: 0}
  m_PrefabAsset: {fileID: 0}
  m_GameObject: {fileID: 5706339456705505898}
  m_Enabled: 1
  m_Avatar: {fileID: 0}
  m_Controller: {fileID: 9100000, guid: a2ee090a3a85f3043b852c6956016238, type: 2}
  m_CullingMode: 0
  m_UpdateMode: 0
  m_ApplyRootMotion: 0
  m_LinearVelocityBlending: 0
  m_WarningMessage: 
  m_HasTransformHierarchy: 1
  m_AllowConstantClipSamplingOptimization: 1
  m_KeepAnimatorControllerStateOnDisable: 0
--- !u!1001 &5706339456844685966
PrefabInstance:
  m_ObjectHideFlags: 0
  serializedVersion: 2
  m_Modification:
    m_TransformParent: {fileID: 5706339456705505901}
    m_Modifications:
    - target: {fileID: -4216859302048453862, guid: 1dd8fd8fba6b1e24186efb88bdd222a5,
        type: 3}
      propertyPath: m_LocalPosition.x
      value: 0
      objectReference: {fileID: 0}
    - target: {fileID: -4216859302048453862, guid: 1dd8fd8fba6b1e24186efb88bdd222a5,
        type: 3}
      propertyPath: m_LocalPosition.y
      value: 0.195
      objectReference: {fileID: 0}
    - target: {fileID: -4216859302048453862, guid: 1dd8fd8fba6b1e24186efb88bdd222a5,
        type: 3}
      propertyPath: m_LocalPosition.z
      value: 0
      objectReference: {fileID: 0}
    - target: {fileID: -4216859302048453862, guid: 1dd8fd8fba6b1e24186efb88bdd222a5,
        type: 3}
      propertyPath: m_LocalRotation.x
      value: -0.25881898
      objectReference: {fileID: 0}
    - target: {fileID: -4216859302048453862, guid: 1dd8fd8fba6b1e24186efb88bdd222a5,
        type: 3}
      propertyPath: m_LocalRotation.y
      value: -0
      objectReference: {fileID: 0}
    - target: {fileID: -4216859302048453862, guid: 1dd8fd8fba6b1e24186efb88bdd222a5,
        type: 3}
      propertyPath: m_LocalRotation.z
      value: -0
      objectReference: {fileID: 0}
    - target: {fileID: -4216859302048453862, guid: 1dd8fd8fba6b1e24186efb88bdd222a5,
        type: 3}
      propertyPath: m_LocalRotation.w
      value: 0.9659259
      objectReference: {fileID: 0}
    - target: {fileID: -4216859302048453862, guid: 1dd8fd8fba6b1e24186efb88bdd222a5,
        type: 3}
      propertyPath: m_RootOrder
      value: 0
      objectReference: {fileID: 0}
    - target: {fileID: -4216859302048453862, guid: 1dd8fd8fba6b1e24186efb88bdd222a5,
        type: 3}
      propertyPath: m_LocalEulerAnglesHint.x
      value: -30.000002
      objectReference: {fileID: 0}
    - target: {fileID: -4216859302048453862, guid: 1dd8fd8fba6b1e24186efb88bdd222a5,
        type: 3}
      propertyPath: m_LocalEulerAnglesHint.y
      value: 0
      objectReference: {fileID: 0}
    - target: {fileID: -4216859302048453862, guid: 1dd8fd8fba6b1e24186efb88bdd222a5,
        type: 3}
      propertyPath: m_LocalEulerAnglesHint.z
      value: 0
      objectReference: {fileID: 0}
    - target: {fileID: -927199367670048503, guid: 1dd8fd8fba6b1e24186efb88bdd222a5,
        type: 3}
      propertyPath: m_Name
      value: GGJ2020_Char_SkeletonSkull_Pass1_01
      objectReference: {fileID: 0}
    m_RemovedComponents: []
  m_SourcePrefab: {fileID: 100100000, guid: 1dd8fd8fba6b1e24186efb88bdd222a5, type: 3}
--- !u!4 &741485688626366868 stripped
Transform:
  m_CorrespondingSourceObject: {fileID: -4216859302048453862, guid: 1dd8fd8fba6b1e24186efb88bdd222a5,
    type: 3}
  m_PrefabInstance: {fileID: 5706339456844685966}
  m_PrefabAsset: {fileID: 0}
