%YAML 1.1
%TAG !u! tag:unity3d.com,2011:
--- !u!114 &11400000
MonoBehaviour:
  m_ObjectHideFlags: 0
  m_CorrespondingSourceObject: {fileID: 0}
  m_PrefabInstance: {fileID: 0}
  m_PrefabAsset: {fileID: 0}
  m_GameObject: {fileID: 0}
  m_Enabled: 1
  m_EditorHideFlags: 0
  m_Script: {fileID: 11500000, guid: 8835d84c0961a485c8871840767bd190, type: 3}
  m_Name: GameOptions
  m_EditorClassIdentifier: 
  xAxisCameraSensitivity: 7
  yAxisCameraSensitivity: 4
  yAxisInvert: 0
  subtitles: 1
