%YAML 1.1
%TAG !u! tag:unity3d.com,2011:
--- !u!1 &1837607111019518370
GameObject:
  m_ObjectHideFlags: 0
  m_CorrespondingSourceObject: {fileID: 0}
  m_PrefabInstance: {fileID: 0}
  m_PrefabAsset: {fileID: 0}
  serializedVersion: 6
  m_Component:
  - component: {fileID: 8717666134020726227}
  m_Layer: 0
  m_Name: TreePrefab
  m_TagString: Untagged
  m_Icon: {fileID: 0}
  m_NavMeshLayer: 0
  m_StaticEditorFlags: 0
  m_IsActive: 1
--- !u!4 &8717666134020726227
Transform:
  m_ObjectHideFlags: 0
  m_CorrespondingSourceObject: {fileID: 0}
  m_PrefabInstance: {fileID: 0}
  m_PrefabAsset: {fileID: 0}
  m_GameObject: {fileID: 1837607111019518370}
  m_LocalRotation: {x: 0, y: 0, z: 0, w: 1}
  m_LocalPosition: {x: 0, y: 0, z: 0}
  m_LocalScale: {x: 1, y: 1, z: 1}
  m_Children:
  - {fileID: 2564653231429393986}
  - {fileID: 2564653231340444512}
  m_Father: {fileID: 0}
  m_RootOrder: 0
  m_LocalEulerAnglesHint: {x: 0, y: 0, z: 0}
--- !u!1 &2564653231340444517
GameObject:
  m_ObjectHideFlags: 0
  m_CorrespondingSourceObject: {fileID: 0}
  m_PrefabInstance: {fileID: 0}
  m_PrefabAsset: {fileID: 0}
  serializedVersion: 6
  m_Component:
  - component: {fileID: 2564653231340444512}
  - component: {fileID: 2564653231340444513}
  - component: {fileID: 2564653231340444518}
  - component: {fileID: 2564653231340444519}
  - component: {fileID: 2564653231340444516}
  m_Layer: 0
  m_Name: Cylinder
  m_TagString: Untagged
  m_Icon: {fileID: 0}
  m_NavMeshLayer: 0
  m_StaticEditorFlags: 4294967295
  m_IsActive: 1
--- !u!4 &2564653231340444512
Transform:
  m_ObjectHideFlags: 0
  m_CorrespondingSourceObject: {fileID: 0}
  m_PrefabInstance: {fileID: 0}
  m_PrefabAsset: {fileID: 0}
  m_GameObject: {fileID: 2564653231340444517}
  m_LocalRotation: {x: -0, y: -0, z: -0, w: 1}
  m_LocalPosition: {x: 0.5, y: 0, z: 0}
  m_LocalScale: {x: 1, y: 2, z: 1}
  m_Children: []
  m_Father: {fileID: 8717666134020726227}
  m_RootOrder: 1
  m_LocalEulerAnglesHint: {x: 0, y: 0, z: 0}
--- !u!33 &2564653231340444513
MeshFilter:
  m_ObjectHideFlags: 0
  m_CorrespondingSourceObject: {fileID: 0}
  m_PrefabInstance: {fileID: 0}
  m_PrefabAsset: {fileID: 0}
  m_GameObject: {fileID: 2564653231340444517}
  m_Mesh: {fileID: 0}
--- !u!23 &2564653231340444518
MeshRenderer:
  m_ObjectHideFlags: 0
  m_CorrespondingSourceObject: {fileID: 0}
  m_PrefabInstance: {fileID: 0}
  m_PrefabAsset: {fileID: 0}
  m_GameObject: {fileID: 2564653231340444517}
  m_Enabled: 1
  m_CastShadows: 1
  m_ReceiveShadows: 1
  m_DynamicOccludee: 1
  m_MotionVectors: 1
  m_LightProbeUsage: 1
  m_ReflectionProbeUsage: 1
  m_RayTracingMode: 2
  m_RenderingLayerMask: 1
  m_RendererPriority: 0
  m_Materials:
  - {fileID: 2100000, guid: 31321ba15b8f8eb4c954353edc038b1d, type: 2}
  m_StaticBatchInfo:
    firstSubMesh: 0
    subMeshCount: 0
  m_StaticBatchRoot: {fileID: 0}
  m_ProbeAnchor: {fileID: 0}
  m_LightProbeVolumeOverride: {fileID: 0}
  m_ScaleInLightmap: 1
  m_ReceiveGI: 1
  m_PreserveUVs: 0
  m_IgnoreNormalsForChartDetection: 0
  m_ImportantGI: 0
  m_StitchLightmapSeams: 1
  m_SelectedEditorRenderState: 2
  m_MinimumChartSize: 4
  m_AutoUVMaxDistance: 0.5
  m_AutoUVMaxAngle: 89
  m_LightmapParameters: {fileID: 0}
  m_SortingLayerID: 0
  m_SortingLayer: 0
  m_SortingOrder: 0
--- !u!114 &2564653231340444519
MonoBehaviour:
  m_ObjectHideFlags: 0
  m_CorrespondingSourceObject: {fileID: 0}
  m_PrefabInstance: {fileID: 0}
  m_PrefabAsset: {fileID: 0}
  m_GameObject: {fileID: 2564653231340444517}
  m_Enabled: 1
  m_EditorHideFlags: 0
  m_Script: {fileID: 11500000, guid: 8233d90336aea43098adf6dbabd606a2, type: 3}
  m_Name: 
  m_EditorClassIdentifier: 
  m_MeshFormatVersion: 1
  m_Faces:
  - m_Indexes: 000000000100000002000000010000000300000002000000
    m_SmoothingGroup: 1
    m_Uv:
      m_UseWorldSpace: 0
      m_FlipU: 0
      m_FlipV: 0
      m_SwapUV: 0
      m_Fill: 1
      m_Scale: {x: 1, y: 1}
      m_Offset: {x: 0, y: 0}
      m_Rotation: 0
      m_Anchor: 9
    m_Material: {fileID: 0}
    m_SubmeshIndex: 0
    m_ManualUV: 0
    elementGroup: -1
    m_TextureGroup: -1
  - m_Indexes: 040000000500000006000000050000000700000006000000
    m_SmoothingGroup: 1
    m_Uv:
      m_UseWorldSpace: 0
      m_FlipU: 0
      m_FlipV: 0
      m_SwapUV: 0
      m_Fill: 1
      m_Scale: {x: 1, y: 1}
      m_Offset: {x: 0, y: 0}
      m_Rotation: 0
      m_Anchor: 9
    m_Material: {fileID: 0}
    m_SubmeshIndex: 0
    m_ManualUV: 0
    elementGroup: -1
    m_TextureGroup: -1
  - m_Indexes: 08000000090000000a000000090000000b0000000a000000
    m_SmoothingGroup: 1
    m_Uv:
      m_UseWorldSpace: 0
      m_FlipU: 0
      m_FlipV: 0
      m_SwapUV: 0
      m_Fill: 1
      m_Scale: {x: 1, y: 1}
      m_Offset: {x: 0, y: 0}
      m_Rotation: 0
      m_Anchor: 9
    m_Material: {fileID: 0}
    m_SubmeshIndex: 0
    m_ManualUV: 0
    elementGroup: -1
    m_TextureGroup: -1
  - m_Indexes: 0c0000000d0000000e0000000d0000000f0000000e000000
    m_SmoothingGroup: 1
    m_Uv:
      m_UseWorldSpace: 0
      m_FlipU: 0
      m_FlipV: 0
      m_SwapUV: 0
      m_Fill: 1
      m_Scale: {x: 1, y: 1}
      m_Offset: {x: 0, y: 0}
      m_Rotation: 0
      m_Anchor: 9
    m_Material: {fileID: 0}
    m_SubmeshIndex: 0
    m_ManualUV: 0
    elementGroup: -1
    m_TextureGroup: -1
  - m_Indexes: 100000001100000012000000110000001300000012000000
    m_SmoothingGroup: 1
    m_Uv:
      m_UseWorldSpace: 0
      m_FlipU: 0
      m_FlipV: 0
      m_SwapUV: 0
      m_Fill: 1
      m_Scale: {x: 1, y: 1}
      m_Offset: {x: 0, y: 0}
      m_Rotation: 0
      m_Anchor: 9
    m_Material: {fileID: 0}
    m_SubmeshIndex: 0
    m_ManualUV: 0
    elementGroup: -1
    m_TextureGroup: -1
  - m_Indexes: 140000001500000016000000150000001700000016000000
    m_SmoothingGroup: 1
    m_Uv:
      m_UseWorldSpace: 0
      m_FlipU: 0
      m_FlipV: 0
      m_SwapUV: 0
      m_Fill: 1
      m_Scale: {x: 1, y: 1}
      m_Offset: {x: 0, y: 0}
      m_Rotation: 0
      m_Anchor: 9
    m_Material: {fileID: 0}
    m_SubmeshIndex: 0
    m_ManualUV: 0
    elementGroup: -1
    m_TextureGroup: -1
  - m_Indexes: 18000000190000001a000000190000001b0000001a000000
    m_SmoothingGroup: 1
    m_Uv:
      m_UseWorldSpace: 0
      m_FlipU: 0
      m_FlipV: 0
      m_SwapUV: 0
      m_Fill: 1
      m_Scale: {x: 1, y: 1}
      m_Offset: {x: 0, y: 0}
      m_Rotation: 0
      m_Anchor: 9
    m_Material: {fileID: 0}
    m_SubmeshIndex: 0
    m_ManualUV: 0
    elementGroup: -1
    m_TextureGroup: -1
  - m_Indexes: 1c0000001d0000001e0000001d0000001f0000001e000000
    m_SmoothingGroup: 1
    m_Uv:
      m_UseWorldSpace: 0
      m_FlipU: 0
      m_FlipV: 0
      m_SwapUV: 0
      m_Fill: 1
      m_Scale: {x: 1, y: 1}
      m_Offset: {x: 0, y: 0}
      m_Rotation: 0
      m_Anchor: 9
    m_Material: {fileID: 0}
    m_SubmeshIndex: 0
    m_ManualUV: 0
    elementGroup: -1
    m_TextureGroup: -1
  - m_Indexes: 200000002100000022000000210000002300000022000000
    m_SmoothingGroup: 1
    m_Uv:
      m_UseWorldSpace: 0
      m_FlipU: 0
      m_FlipV: 0
      m_SwapUV: 0
      m_Fill: 1
      m_Scale: {x: 1, y: 1}
      m_Offset: {x: 0, y: 0}
      m_Rotation: 0
      m_Anchor: 9
    m_Material: {fileID: 0}
    m_SubmeshIndex: 0
    m_ManualUV: 0
    elementGroup: -1
    m_TextureGroup: -1
  - m_Indexes: 240000002500000026000000250000002700000026000000
    m_SmoothingGroup: 1
    m_Uv:
      m_UseWorldSpace: 0
      m_FlipU: 0
      m_FlipV: 0
      m_SwapUV: 0
      m_Fill: 1
      m_Scale: {x: 1, y: 1}
      m_Offset: {x: 0, y: 0}
      m_Rotation: 0
      m_Anchor: 9
    m_Material: {fileID: 0}
    m_SubmeshIndex: 0
    m_ManualUV: 0
    elementGroup: -1
    m_TextureGroup: -1
  - m_Indexes: 28000000290000002a000000290000002b0000002a000000
    m_SmoothingGroup: 1
    m_Uv:
      m_UseWorldSpace: 0
      m_FlipU: 0
      m_FlipV: 0
      m_SwapUV: 0
      m_Fill: 1
      m_Scale: {x: 1, y: 1}
      m_Offset: {x: 0, y: 0}
      m_Rotation: 0
      m_Anchor: 9
    m_Material: {fileID: 0}
    m_SubmeshIndex: 0
    m_ManualUV: 0
    elementGroup: -1
    m_TextureGroup: -1
  - m_Indexes: 2c0000002d0000002e0000002d0000002f0000002e000000
    m_SmoothingGroup: 1
    m_Uv:
      m_UseWorldSpace: 0
      m_FlipU: 0
      m_FlipV: 0
      m_SwapUV: 0
      m_Fill: 1
      m_Scale: {x: 1, y: 1}
      m_Offset: {x: 0, y: 0}
      m_Rotation: 0
      m_Anchor: 9
    m_Material: {fileID: 0}
    m_SubmeshIndex: 0
    m_ManualUV: 0
    elementGroup: -1
    m_TextureGroup: -1
  - m_Indexes: 320000003100000030000000
    m_SmoothingGroup: 0
    m_Uv:
      m_UseWorldSpace: 0
      m_FlipU: 0
      m_FlipV: 0
      m_SwapUV: 0
      m_Fill: 1
      m_Scale: {x: 1, y: 1}
      m_Offset: {x: 0, y: 0}
      m_Rotation: 0
      m_Anchor: 9
    m_Material: {fileID: 2100000, guid: 31321ba15b8f8eb4c954353edc038b1d, type: 2}
    m_SubmeshIndex: 0
    m_ManualUV: 0
    elementGroup: 0
    m_TextureGroup: -1
  - m_Indexes: 380000003700000036000000
    m_SmoothingGroup: 0
    m_Uv:
      m_UseWorldSpace: 0
      m_FlipU: 0
      m_FlipV: 0
      m_SwapUV: 0
      m_Fill: 1
      m_Scale: {x: 1, y: 1}
      m_Offset: {x: 0, y: 0}
      m_Rotation: 0
      m_Anchor: 9
    m_Material: {fileID: 2100000, guid: 31321ba15b8f8eb4c954353edc038b1d, type: 2}
    m_SubmeshIndex: 0
    m_ManualUV: 0
    elementGroup: 0
    m_TextureGroup: -1
  - m_Indexes: 3e0000003d0000003c000000
    m_SmoothingGroup: 0
    m_Uv:
      m_UseWorldSpace: 0
      m_FlipU: 0
      m_FlipV: 0
      m_SwapUV: 0
      m_Fill: 1
      m_Scale: {x: 1, y: 1}
      m_Offset: {x: 0, y: 0}
      m_Rotation: 0
      m_Anchor: 9
    m_Material: {fileID: 2100000, guid: 31321ba15b8f8eb4c954353edc038b1d, type: 2}
    m_SubmeshIndex: 0
    m_ManualUV: 0
    elementGroup: 0
    m_TextureGroup: -1
  - m_Indexes: 440000004300000042000000
    m_SmoothingGroup: 0
    m_Uv:
      m_UseWorldSpace: 0
      m_FlipU: 0
      m_FlipV: 0
      m_SwapUV: 0
      m_Fill: 1
      m_Scale: {x: 1, y: 1}
      m_Offset: {x: 0, y: 0}
      m_Rotation: 0
      m_Anchor: 9
    m_Material: {fileID: 2100000, guid: 31321ba15b8f8eb4c954353edc038b1d, type: 2}
    m_SubmeshIndex: 0
    m_ManualUV: 0
    elementGroup: 0
    m_TextureGroup: -1
  - m_Indexes: 4a0000004900000048000000
    m_SmoothingGroup: 0
    m_Uv:
      m_UseWorldSpace: 0
      m_FlipU: 0
      m_FlipV: 0
      m_SwapUV: 0
      m_Fill: 1
      m_Scale: {x: 1, y: 1}
      m_Offset: {x: 0, y: 0}
      m_Rotation: 0
      m_Anchor: 9
    m_Material: {fileID: 2100000, guid: 31321ba15b8f8eb4c954353edc038b1d, type: 2}
    m_SubmeshIndex: 0
    m_ManualUV: 0
    elementGroup: 0
    m_TextureGroup: -1
  - m_Indexes: 500000004f0000004e000000
    m_SmoothingGroup: 0
    m_Uv:
      m_UseWorldSpace: 0
      m_FlipU: 0
      m_FlipV: 0
      m_SwapUV: 0
      m_Fill: 1
      m_Scale: {x: 1, y: 1}
      m_Offset: {x: 0, y: 0}
      m_Rotation: 0
      m_Anchor: 9
    m_Material: {fileID: 2100000, guid: 31321ba15b8f8eb4c954353edc038b1d, type: 2}
    m_SubmeshIndex: 0
    m_ManualUV: 0
    elementGroup: 0
    m_TextureGroup: -1
  - m_Indexes: 560000005500000054000000
    m_SmoothingGroup: 0
    m_Uv:
      m_UseWorldSpace: 0
      m_FlipU: 0
      m_FlipV: 0
      m_SwapUV: 0
      m_Fill: 1
      m_Scale: {x: 1, y: 1}
      m_Offset: {x: 0, y: 0}
      m_Rotation: 0
      m_Anchor: 9
    m_Material: {fileID: 2100000, guid: 31321ba15b8f8eb4c954353edc038b1d, type: 2}
    m_SubmeshIndex: 0
    m_ManualUV: 0
    elementGroup: 0
    m_TextureGroup: -1
  - m_Indexes: 5c0000005b0000005a000000
    m_SmoothingGroup: 0
    m_Uv:
      m_UseWorldSpace: 0
      m_FlipU: 0
      m_FlipV: 0
      m_SwapUV: 0
      m_Fill: 1
      m_Scale: {x: 1, y: 1}
      m_Offset: {x: 0, y: 0}
      m_Rotation: 0
      m_Anchor: 9
    m_Material: {fileID: 2100000, guid: 31321ba15b8f8eb4c954353edc038b1d, type: 2}
    m_SubmeshIndex: 0
    m_ManualUV: 0
    elementGroup: 0
    m_TextureGroup: -1
  - m_Indexes: 620000006100000060000000
    m_SmoothingGroup: 0
    m_Uv:
      m_UseWorldSpace: 0
      m_FlipU: 0
      m_FlipV: 0
      m_SwapUV: 0
      m_Fill: 1
      m_Scale: {x: 1, y: 1}
      m_Offset: {x: 0, y: 0}
      m_Rotation: 0
      m_Anchor: 9
    m_Material: {fileID: 2100000, guid: 31321ba15b8f8eb4c954353edc038b1d, type: 2}
    m_SubmeshIndex: 0
    m_ManualUV: 0
    elementGroup: 0
    m_TextureGroup: -1
  - m_Indexes: 680000006700000066000000
    m_SmoothingGroup: 0
    m_Uv:
      m_UseWorldSpace: 0
      m_FlipU: 0
      m_FlipV: 0
      m_SwapUV: 0
      m_Fill: 1
      m_Scale: {x: 1, y: 1}
      m_Offset: {x: 0, y: 0}
      m_Rotation: 0
      m_Anchor: 9
    m_Material: {fileID: 2100000, guid: 31321ba15b8f8eb4c954353edc038b1d, type: 2}
    m_SubmeshIndex: 0
    m_ManualUV: 0
    elementGroup: 0
    m_TextureGroup: -1
  - m_Indexes: 6e0000006d0000006c000000
    m_SmoothingGroup: 0
    m_Uv:
      m_UseWorldSpace: 0
      m_FlipU: 0
      m_FlipV: 0
      m_SwapUV: 0
      m_Fill: 1
      m_Scale: {x: 1, y: 1}
      m_Offset: {x: 0, y: 0}
      m_Rotation: 0
      m_Anchor: 9
    m_Material: {fileID: 2100000, guid: 31321ba15b8f8eb4c954353edc038b1d, type: 2}
    m_SubmeshIndex: 0
    m_ManualUV: 0
    elementGroup: 0
    m_TextureGroup: -1
  - m_Indexes: 740000007300000072000000
    m_SmoothingGroup: 0
    m_Uv:
      m_UseWorldSpace: 0
      m_FlipU: 0
      m_FlipV: 0
      m_SwapUV: 0
      m_Fill: 1
      m_Scale: {x: 1, y: 1}
      m_Offset: {x: 0, y: 0}
      m_Rotation: 0
      m_Anchor: 9
    m_Material: {fileID: 2100000, guid: 31321ba15b8f8eb4c954353edc038b1d, type: 2}
    m_SubmeshIndex: 0
    m_ManualUV: 0
    elementGroup: 0
    m_TextureGroup: -1
  - m_Indexes: 330000003400000035000000
    m_SmoothingGroup: 0
    m_Uv:
      m_UseWorldSpace: 0
      m_FlipU: 0
      m_FlipV: 0
      m_SwapUV: 0
      m_Fill: 1
      m_Scale: {x: 1, y: 1}
      m_Offset: {x: 0, y: 0}
      m_Rotation: 0
      m_Anchor: 9
    m_Material: {fileID: 2100000, guid: 31321ba15b8f8eb4c954353edc038b1d, type: 2}
    m_SubmeshIndex: 0
    m_ManualUV: 0
    elementGroup: 0
    m_TextureGroup: -1
  - m_Indexes: 390000003a0000003b000000
    m_SmoothingGroup: 0
    m_Uv:
      m_UseWorldSpace: 0
      m_FlipU: 0
      m_FlipV: 0
      m_SwapUV: 0
      m_Fill: 1
      m_Scale: {x: 1, y: 1}
      m_Offset: {x: 0, y: 0}
      m_Rotation: 0
      m_Anchor: 9
    m_Material: {fileID: 2100000, guid: 31321ba15b8f8eb4c954353edc038b1d, type: 2}
    m_SubmeshIndex: 0
    m_ManualUV: 0
    elementGroup: 0
    m_TextureGroup: -1
  - m_Indexes: 3f0000004000000041000000
    m_SmoothingGroup: 0
    m_Uv:
      m_UseWorldSpace: 0
      m_FlipU: 0
      m_FlipV: 0
      m_SwapUV: 0
      m_Fill: 1
      m_Scale: {x: 1, y: 1}
      m_Offset: {x: 0, y: 0}
      m_Rotation: 0
      m_Anchor: 9
    m_Material: {fileID: 2100000, guid: 31321ba15b8f8eb4c954353edc038b1d, type: 2}
    m_SubmeshIndex: 0
    m_ManualUV: 0
    elementGroup: 0
    m_TextureGroup: -1
  - m_Indexes: 450000004600000047000000
    m_SmoothingGroup: 0
    m_Uv:
      m_UseWorldSpace: 0
      m_FlipU: 0
      m_FlipV: 0
      m_SwapUV: 0
      m_Fill: 1
      m_Scale: {x: 1, y: 1}
      m_Offset: {x: 0, y: 0}
      m_Rotation: 0
      m_Anchor: 9
    m_Material: {fileID: 2100000, guid: 31321ba15b8f8eb4c954353edc038b1d, type: 2}
    m_SubmeshIndex: 0
    m_ManualUV: 0
    elementGroup: 0
    m_TextureGroup: -1
  - m_Indexes: 4b0000004c0000004d000000
    m_SmoothingGroup: 0
    m_Uv:
      m_UseWorldSpace: 0
      m_FlipU: 0
      m_FlipV: 0
      m_SwapUV: 0
      m_Fill: 1
      m_Scale: {x: 1, y: 1}
      m_Offset: {x: 0, y: 0}
      m_Rotation: 0
      m_Anchor: 9
    m_Material: {fileID: 2100000, guid: 31321ba15b8f8eb4c954353edc038b1d, type: 2}
    m_SubmeshIndex: 0
    m_ManualUV: 0
    elementGroup: 0
    m_TextureGroup: -1
  - m_Indexes: 510000005200000053000000
    m_SmoothingGroup: 0
    m_Uv:
      m_UseWorldSpace: 0
      m_FlipU: 0
      m_FlipV: 0
      m_SwapUV: 0
      m_Fill: 1
      m_Scale: {x: 1, y: 1}
      m_Offset: {x: 0, y: 0}
      m_Rotation: 0
      m_Anchor: 9
    m_Material: {fileID: 2100000, guid: 31321ba15b8f8eb4c954353edc038b1d, type: 2}
    m_SubmeshIndex: 0
    m_ManualUV: 0
    elementGroup: 0
    m_TextureGroup: -1
  - m_Indexes: 570000005800000059000000
    m_SmoothingGroup: 0
    m_Uv:
      m_UseWorldSpace: 0
      m_FlipU: 0
      m_FlipV: 0
      m_SwapUV: 0
      m_Fill: 1
      m_Scale: {x: 1, y: 1}
      m_Offset: {x: 0, y: 0}
      m_Rotation: 0
      m_Anchor: 9
    m_Material: {fileID: 2100000, guid: 31321ba15b8f8eb4c954353edc038b1d, type: 2}
    m_SubmeshIndex: 0
    m_ManualUV: 0
    elementGroup: 0
    m_TextureGroup: -1
  - m_Indexes: 5d0000005e0000005f000000
    m_SmoothingGroup: 0
    m_Uv:
      m_UseWorldSpace: 0
      m_FlipU: 0
      m_FlipV: 0
      m_SwapUV: 0
      m_Fill: 1
      m_Scale: {x: 1, y: 1}
      m_Offset: {x: 0, y: 0}
      m_Rotation: 0
      m_Anchor: 9
    m_Material: {fileID: 2100000, guid: 31321ba15b8f8eb4c954353edc038b1d, type: 2}
    m_SubmeshIndex: 0
    m_ManualUV: 0
    elementGroup: 0
    m_TextureGroup: -1
  - m_Indexes: 630000006400000065000000
    m_SmoothingGroup: 0
    m_Uv:
      m_UseWorldSpace: 0
      m_FlipU: 0
      m_FlipV: 0
      m_SwapUV: 0
      m_Fill: 1
      m_Scale: {x: 1, y: 1}
      m_Offset: {x: 0, y: 0}
      m_Rotation: 0
      m_Anchor: 9
    m_Material: {fileID: 2100000, guid: 31321ba15b8f8eb4c954353edc038b1d, type: 2}
    m_SubmeshIndex: 0
    m_ManualUV: 0
    elementGroup: 0
    m_TextureGroup: -1
  - m_Indexes: 690000006a0000006b000000
    m_SmoothingGroup: 0
    m_Uv:
      m_UseWorldSpace: 0
      m_FlipU: 0
      m_FlipV: 0
      m_SwapUV: 0
      m_Fill: 1
      m_Scale: {x: 1, y: 1}
      m_Offset: {x: 0, y: 0}
      m_Rotation: 0
      m_Anchor: 9
    m_Material: {fileID: 2100000, guid: 31321ba15b8f8eb4c954353edc038b1d, type: 2}
    m_SubmeshIndex: 0
    m_ManualUV: 0
    elementGroup: 0
    m_TextureGroup: -1
  - m_Indexes: 6f0000007000000071000000
    m_SmoothingGroup: 0
    m_Uv:
      m_UseWorldSpace: 0
      m_FlipU: 0
      m_FlipV: 0
      m_SwapUV: 0
      m_Fill: 1
      m_Scale: {x: 1, y: 1}
      m_Offset: {x: 0, y: 0}
      m_Rotation: 0
      m_Anchor: 9
    m_Material: {fileID: 2100000, guid: 31321ba15b8f8eb4c954353edc038b1d, type: 2}
    m_SubmeshIndex: 0
    m_ManualUV: 0
    elementGroup: 0
    m_TextureGroup: -1
  - m_Indexes: 750000007600000077000000
    m_SmoothingGroup: 0
    m_Uv:
      m_UseWorldSpace: 0
      m_FlipU: 0
      m_FlipV: 0
      m_SwapUV: 0
      m_Fill: 1
      m_Scale: {x: 1, y: 1}
      m_Offset: {x: 0, y: 0}
      m_Rotation: 0
      m_Anchor: 9
    m_Material: {fileID: 2100000, guid: 31321ba15b8f8eb4c954353edc038b1d, type: 2}
    m_SubmeshIndex: 0
    m_ManualUV: 0
    elementGroup: 0
    m_TextureGroup: -1
  m_SharedVertices:
  - m_Vertices: 000000002e0000003000000074000000
  - m_Vertices: 010000002f0000003300000077000000
  - m_Vertices: 02000000040000003200000036000000
  - m_Vertices: 03000000050000003500000039000000
  - m_Vertices: 0600000008000000380000003c000000
  - m_Vertices: 07000000090000003b0000003f000000
  - m_Vertices: 0a0000000c0000003e00000042000000
  - m_Vertices: 0b0000000d0000004100000045000000
  - m_Vertices: 0e000000100000004400000048000000
  - m_Vertices: 0f00000011000000470000004b000000
  - m_Vertices: 12000000140000004a0000004e000000
  - m_Vertices: 13000000150000004d00000051000000
  - m_Vertices: 16000000180000005000000054000000
  - m_Vertices: 17000000190000005300000057000000
  - m_Vertices: 1a0000001c000000560000005a000000
  - m_Vertices: 1b0000001d000000590000005d000000
  - m_Vertices: 1e000000200000005c00000060000000
  - m_Vertices: 1f000000210000005f00000063000000
  - m_Vertices: 22000000240000006200000066000000
  - m_Vertices: 23000000250000006500000069000000
  - m_Vertices: 2600000028000000680000006c000000
  - m_Vertices: 27000000290000006b0000006f000000
  - m_Vertices: 2a0000002c0000006e00000072000000
  - m_Vertices: 2b0000002d0000007100000075000000
  - m_Vertices: 31000000370000003d00000043000000490000004f000000550000005b00000061000000670000006d00000073000000
  - m_Vertices: 340000003a00000040000000460000004c00000052000000580000005e000000640000006a0000007000000076000000
  m_SharedTextures: []
  m_Positions:
  - {x: 0, y: 0, z: 0}
  - {x: 0, y: 0.5, z: 0}
  - {x: -0.066987306, y: 0, z: 0.25}
  - {x: -0.066987306, y: 0.5, z: 0.25}
  - {x: -0.066987306, y: 0, z: 0.25}
  - {x: -0.066987306, y: 0.5, z: 0.25}
  - {x: -0.25, y: 0, z: 0.43301272}
  - {x: -0.25, y: 0.5, z: 0.43301272}
  - {x: -0.25, y: 0, z: 0.43301272}
  - {x: -0.25, y: 0.5, z: 0.43301272}
  - {x: -0.5, y: 0, z: 0.5}
  - {x: -0.5, y: 0.5, z: 0.5}
  - {x: -0.5, y: 0, z: 0.5}
  - {x: -0.5, y: 0.5, z: 0.5}
  - {x: -0.75, y: 0, z: 0.4330127}
  - {x: -0.75, y: 0.5, z: 0.4330127}
  - {x: -0.75, y: 0, z: 0.4330127}
  - {x: -0.75, y: 0.5, z: 0.4330127}
  - {x: -0.9330127, y: 0, z: 0.25000003}
  - {x: -0.9330127, y: 0.5, z: 0.25000003}
  - {x: -0.9330127, y: 0, z: 0.25000003}
  - {x: -0.9330127, y: 0.5, z: 0.25000003}
  - {x: -1, y: 0, z: -0.00000004371139}
  - {x: -1, y: 0.5, z: -0.00000004371139}
  - {x: -1, y: 0, z: -0.00000004371139}
  - {x: -1, y: 0.5, z: -0.00000004371139}
  - {x: -0.9330127, y: 0, z: -0.24999999}
  - {x: -0.9330127, y: 0.5, z: -0.24999999}
  - {x: -0.9330127, y: 0, z: -0.24999999}
  - {x: -0.9330127, y: 0.5, z: -0.24999999}
  - {x: -0.74999994, y: 0, z: -0.43301272}
  - {x: -0.74999994, y: 0.5, z: -0.43301272}
  - {x: -0.74999994, y: 0, z: -0.43301272}
  - {x: -0.74999994, y: 0.5, z: -0.43301272}
  - {x: -0.5, y: 0, z: -0.5}
  - {x: -0.5, y: 0.5, z: -0.5}
  - {x: -0.5, y: 0, z: -0.5}
  - {x: -0.5, y: 0.5, z: -0.5}
  - {x: -0.25000006, y: 0, z: -0.43301272}
  - {x: -0.25000006, y: 0.5, z: -0.43301272}
  - {x: -0.25000006, y: 0, z: -0.43301272}
  - {x: -0.25000006, y: 0.5, z: -0.43301272}
  - {x: -0.066987336, y: 0, z: -0.2500001}
  - {x: -0.066987336, y: 0.5, z: -0.2500001}
  - {x: -0.066987336, y: 0, z: -0.2500001}
  - {x: -0.066987336, y: 0.5, z: -0.2500001}
  - {x: 0, y: 0, z: 0}
  - {x: 0, y: 0.5, z: 0}
  - {x: 0, y: 0, z: 0}
  - {x: -0.5, y: 0, z: 0}
  - {x: -0.066987306, y: 0, z: 0.25}
  - {x: 0, y: 0.5, z: 0}
  - {x: -0.5, y: 0.5, z: 0}
  - {x: -0.066987306, y: 0.5, z: 0.25}
  - {x: -0.066987306, y: 0, z: 0.25}
  - {x: -0.5, y: 0, z: 0}
  - {x: -0.25, y: 0, z: 0.43301272}
  - {x: -0.066987306, y: 0.5, z: 0.25}
  - {x: -0.5, y: 0.5, z: 0}
  - {x: -0.25, y: 0.5, z: 0.43301272}
  - {x: -0.25, y: 0, z: 0.43301272}
  - {x: -0.5, y: 0, z: 0}
  - {x: -0.5, y: 0, z: 0.5}
  - {x: -0.25, y: 0.5, z: 0.43301272}
  - {x: -0.5, y: 0.5, z: 0}
  - {x: -0.5, y: 0.5, z: 0.5}
  - {x: -0.5, y: 0, z: 0.5}
  - {x: -0.5, y: 0, z: 0}
  - {x: -0.75, y: 0, z: 0.4330127}
  - {x: -0.5, y: 0.5, z: 0.5}
  - {x: -0.5, y: 0.5, z: 0}
  - {x: -0.75, y: 0.5, z: 0.4330127}
  - {x: -0.75, y: 0, z: 0.4330127}
  - {x: -0.5, y: 0, z: 0}
  - {x: -0.9330127, y: 0, z: 0.25000003}
  - {x: -0.75, y: 0.5, z: 0.4330127}
  - {x: -0.5, y: 0.5, z: 0}
  - {x: -0.9330127, y: 0.5, z: 0.25000003}
  - {x: -0.9330127, y: 0, z: 0.25000003}
  - {x: -0.5, y: 0, z: 0}
  - {x: -1, y: 0, z: -0.00000004371139}
  - {x: -0.9330127, y: 0.5, z: 0.25000003}
  - {x: -0.5, y: 0.5, z: 0}
  - {x: -1, y: 0.5, z: -0.00000004371139}
  - {x: -1, y: 0, z: -0.00000004371139}
  - {x: -0.5, y: 0, z: 0}
  - {x: -0.9330127, y: 0, z: -0.24999999}
  - {x: -1, y: 0.5, z: -0.00000004371139}
  - {x: -0.5, y: 0.5, z: 0}
  - {x: -0.9330127, y: 0.5, z: -0.24999999}
  - {x: -0.9330127, y: 0, z: -0.24999999}
  - {x: -0.5, y: 0, z: 0}
  - {x: -0.74999994, y: 0, z: -0.43301272}
  - {x: -0.9330127, y: 0.5, z: -0.24999999}
  - {x: -0.5, y: 0.5, z: 0}
  - {x: -0.74999994, y: 0.5, z: -0.43301272}
  - {x: -0.74999994, y: 0, z: -0.43301272}
  - {x: -0.5, y: 0, z: 0}
  - {x: -0.5, y: 0, z: -0.5}
  - {x: -0.74999994, y: 0.5, z: -0.43301272}
  - {x: -0.5, y: 0.5, z: 0}
  - {x: -0.5, y: 0.5, z: -0.5}
  - {x: -0.5, y: 0, z: -0.5}
  - {x: -0.5, y: 0, z: 0}
  - {x: -0.25000006, y: 0, z: -0.43301272}
  - {x: -0.5, y: 0.5, z: -0.5}
  - {x: -0.5, y: 0.5, z: 0}
  - {x: -0.25000006, y: 0.5, z: -0.43301272}
  - {x: -0.25000006, y: 0, z: -0.43301272}
  - {x: -0.5, y: 0, z: 0}
  - {x: -0.066987336, y: 0, z: -0.2500001}
  - {x: -0.25000006, y: 0.5, z: -0.43301272}
  - {x: -0.5, y: 0.5, z: 0}
  - {x: -0.066987336, y: 0.5, z: -0.2500001}
  - {x: -0.066987336, y: 0, z: -0.2500001}
  - {x: -0.5, y: 0, z: 0}
  - {x: 0, y: 0, z: 0}
  - {x: -0.066987336, y: 0.5, z: -0.2500001}
  - {x: -0.5, y: 0.5, z: 0}
  - {x: 0, y: 0.5, z: 0}
  m_Textures0:
  - {x: 0, y: 0}
  - {x: 0, y: 0.5}
  - {x: 0.25881904, y: 0}
  - {x: 0.25881904, y: 0.5}
  - {x: 0.22414388, y: 0}
  - {x: 0.22414388, y: 0.5}
  - {x: 0.48296294, y: 0}
  - {x: 0.48296294, y: 0.5}
  - {x: 0.35355338, y: 0}
  - {x: 0.35355338, y: 0.5}
  - {x: 0.6123724, y: 0}
  - {x: 0.6123724, y: 0.5}
  - {x: 0.35355335, y: 0}
  - {x: 0.35355335, y: 0.5}
  - {x: 0.6123724, y: 0}
  - {x: 0.6123724, y: 0.5}
  - {x: 0.22414401, y: 0}
  - {x: 0.22414401, y: 0.5}
  - {x: 0.48296303, y: 0}
  - {x: 0.48296303, y: 0.5}
  - {x: -0.00000014718589, y: 0}
  - {x: -0.00000014718589, y: 0.5}
  - {x: 0.25881895, y: 0}
  - {x: 0.25881895, y: 0.5}
  - {x: -0.25881898, y: 0}
  - {x: -0.25881898, y: 0.5}
  - {x: 0.0000000056866423, y: 0}
  - {x: 0.0000000056866423, y: 0.5}
  - {x: -0.482963, y: 0}
  - {x: -0.482963, y: 0.5}
  - {x: -0.22414388, y: 0}
  - {x: -0.22414388, y: 0.5}
  - {x: -0.6123724, y: 0}
  - {x: -0.6123724, y: 0.5}
  - {x: -0.3535534, y: 0}
  - {x: -0.3535534, y: 0.5}
  - {x: -0.6123724, y: 0}
  - {x: -0.6123724, y: 0.5}
  - {x: -0.35355344, y: 0}
  - {x: -0.35355344, y: 0.5}
  - {x: -0.48296294, y: 0}
  - {x: -0.48296294, y: 0.5}
  - {x: -0.22414392, y: 0}
  - {x: -0.22414392, y: 0.5}
  - {x: -0.25881916, y: 0}
  - {x: -0.25881916, y: 0.5}
  - {x: 0, y: 0}
  - {x: 0, y: 0.5}
  - {x: 0, y: 0}
  - {x: 0.5, y: 0}
  - {x: 0.066987306, y: 0.25}
  - {x: 0, y: 0}
  - {x: -0.5, y: 0}
  - {x: -0.066987306, y: 0.25}
  - {x: 0.066987306, y: 0.25}
  - {x: 0.5, y: 0}
  - {x: 0.25, y: 0.43301272}
  - {x: -0.066987306, y: 0.25}
  - {x: -0.5, y: 0}
  - {x: -0.25, y: 0.43301272}
  - {x: 0.25, y: 0.43301272}
  - {x: 0.5, y: 0}
  - {x: 0.5, y: 0.5}
  - {x: -0.25, y: 0.43301272}
  - {x: -0.5, y: 0}
  - {x: -0.5, y: 0.5}
  - {x: 0.5, y: 0.5}
  - {x: 0.5, y: 0}
  - {x: 0.75, y: 0.4330127}
  - {x: -0.5, y: 0.5}
  - {x: -0.5, y: 0}
  - {x: -0.75, y: 0.4330127}
  - {x: 0.75, y: 0.4330127}
  - {x: 0.5, y: 0}
  - {x: 0.9330127, y: 0.25000003}
  - {x: -0.75, y: 0.4330127}
  - {x: -0.5, y: 0}
  - {x: -0.9330127, y: 0.25000003}
  - {x: 0.9330127, y: 0.25000003}
  - {x: 0.5, y: 0}
  - {x: 1, y: -0.00000004371139}
  - {x: -0.9330127, y: 0.25000003}
  - {x: -0.5, y: 0}
  - {x: -1, y: -0.00000004371139}
  - {x: 1, y: -0.00000004371139}
  - {x: 0.5, y: 0}
  - {x: 0.9330127, y: -0.24999999}
  - {x: -1, y: -0.00000004371139}
  - {x: -0.5, y: 0}
  - {x: -0.9330127, y: -0.24999999}
  - {x: 0.9330127, y: -0.24999999}
  - {x: 0.5, y: 0}
  - {x: 0.74999994, y: -0.43301272}
  - {x: -0.9330127, y: -0.24999999}
  - {x: -0.5, y: 0}
  - {x: -0.74999994, y: -0.43301272}
  - {x: 0.74999994, y: -0.43301272}
  - {x: 0.5, y: 0}
  - {x: 0.5, y: -0.5}
  - {x: -0.74999994, y: -0.43301272}
  - {x: -0.5, y: 0}
  - {x: -0.5, y: -0.5}
  - {x: 0.5, y: -0.5}
  - {x: 0.5, y: 0}
  - {x: 0.25000006, y: -0.43301272}
  - {x: -0.5, y: -0.5}
  - {x: -0.5, y: 0}
  - {x: -0.25000006, y: -0.43301272}
  - {x: 0.25000006, y: -0.43301272}
  - {x: 0.5, y: 0}
  - {x: 0.066987336, y: -0.2500001}
  - {x: -0.25000006, y: -0.43301272}
  - {x: -0.5, y: 0}
  - {x: -0.066987336, y: -0.2500001}
  - {x: 0.066987336, y: -0.2500001}
  - {x: 0.5, y: 0}
  - {x: 0, y: 0}
  - {x: -0.066987336, y: -0.2500001}
  - {x: -0.5, y: 0}
  - {x: 0, y: 0}
  m_Textures2: []
  m_Textures3: []
  m_Tangents:
  - {x: 0.000000030853634, y: 0, z: 1, w: -1}
  - {x: 0.000000030853634, y: 0, z: 1, w: -1}
  - {x: -0.5, y: 0, z: 0.86602545, w: -1}
  - {x: -0.5, y: 0, z: 0.86602545, w: -1}
  - {x: -0.49999997, y: 0, z: 0.86602545, w: -1}
  - {x: -0.49999997, y: 0, z: 0.86602545, w: -1}
  - {x: -0.86602545, y: 0, z: 0.50000006, w: -1}
  - {x: -0.86602545, y: 0, z: 0.50000006, w: -1}
  - {x: -0.8660254, y: 0, z: 0.5, w: -1}
  - {x: -0.8660254, y: 0, z: 0.5, w: -1}
  - {x: -1, y: 0, z: -0.00000006170726, w: -1}
  - {x: -1, y: 0, z: -0.00000006170726, w: -1}
  - {x: -1, y: 0, z: -0.000000030853634, w: -1}
  - {x: -1, y: 0, z: -0.000000030853634, w: -1}
  - {x: -0.86602545, y: 0, z: -0.4999999, w: -1}
  - {x: -0.86602545, y: 0, z: -0.4999999, w: -1}
  - {x: -0.86602545, y: 0, z: -0.49999994, w: -1}
  - {x: -0.86602545, y: 0, z: -0.49999994, w: -1}
  - {x: -0.50000006, y: 0, z: -0.86602545, w: -1}
  - {x: -0.50000006, y: 0, z: -0.86602545, w: -1}
  - {x: -0.5, y: 0, z: -0.8660254, w: -1}
  - {x: -0.5, y: 0, z: -0.8660254, w: -1}
  - {x: 0.00000006170727, y: 0, z: -1, w: -1}
  - {x: 0.00000006170727, y: 0, z: -1, w: -1}
  - {x: 0.000000030853634, y: 0, z: -1, w: -1}
  - {x: 0.000000030853634, y: 0, z: -1, w: -1}
  - {x: 0.5, y: 0, z: -0.8660254, w: -1}
  - {x: 0.5, y: 0, z: -0.8660254, w: -1}
  - {x: 0.5, y: 0, z: -0.8660254, w: -1}
  - {x: 0.5, y: 0, z: -0.8660254, w: -1}
  - {x: 0.86602545, y: 0, z: -0.49999994, w: -1}
  - {x: 0.86602545, y: 0, z: -0.49999994, w: -1}
  - {x: 0.86602545, y: 0, z: -0.49999994, w: -1}
  - {x: 0.86602545, y: 0, z: -0.49999994, w: -1}
  - {x: 1, y: 0, z: 0, w: -1}
  - {x: 1, y: 0, z: 0, w: -1}
  - {x: 1, y: 0, z: 0, w: -1}
  - {x: 1, y: 0, z: 0, w: -1}
  - {x: 0.8660255, y: 0, z: 0.49999988, w: -1}
  - {x: 0.8660255, y: 0, z: 0.49999988, w: -1}
  - {x: 0.8660255, y: 0, z: 0.49999988, w: -1}
  - {x: 0.8660255, y: 0, z: 0.49999988, w: -1}
  - {x: 0.5000001, y: 0, z: 0.8660253, w: -1}
  - {x: 0.5000001, y: 0, z: 0.8660253, w: -1}
  - {x: 0.5000001, y: 0, z: 0.8660253, w: -1}
  - {x: 0.5000001, y: 0, z: 0.8660253, w: -1}
  - {x: 0, y: 0, z: 1, w: -1}
  - {x: 0, y: 0, z: 1, w: -1}
  - {x: -1, y: 0, z: 0, w: -1}
  - {x: -1, y: 0, z: 0, w: -1}
  - {x: -1, y: 0, z: 0, w: -1}
  - {x: 1, y: 0, z: 0, w: -1}
  - {x: 1, y: 0, z: 0, w: -1}
  - {x: 1, y: 0, z: 0, w: -1}
  - {x: -1, y: 0, z: 0, w: -1}
  - {x: -1, y: 0, z: 0, w: -1}
  - {x: -1, y: 0, z: 0, w: -1}
  - {x: 1, y: 0, z: 0, w: -1}
  - {x: 1, y: 0, z: 0, w: -1}
  - {x: 1, y: 0, z: 0, w: -1}
  - {x: -1, y: 0, z: 0, w: -1}
  - {x: -1, y: 0, z: 0, w: -1}
  - {x: -1, y: 0, z: 0, w: -1}
  - {x: 1, y: 0, z: 0, w: -1}
  - {x: 1, y: 0, z: 0, w: -1}
  - {x: 1, y: 0, z: 0, w: -1}
  - {x: -1, y: 0, z: 0, w: -1}
  - {x: -1, y: 0, z: 0, w: -1}
  - {x: -1, y: 0, z: 0, w: -1}
  - {x: 1, y: 0, z: 0, w: -1}
  - {x: 1, y: 0, z: 0, w: -1}
  - {x: 1, y: 0, z: 0, w: -1}
  - {x: -1, y: 0, z: 0, w: -1}
  - {x: -1, y: 0, z: 0, w: -1}
  - {x: -1, y: 0, z: 0, w: -1}
  - {x: 1, y: 0, z: 0, w: -1}
  - {x: 1, y: 0, z: 0, w: -1}
  - {x: 1, y: 0, z: 0, w: -1}
  - {x: -1, y: 0, z: 0, w: -1}
  - {x: -1, y: 0, z: 0, w: -1}
  - {x: -1, y: 0, z: 0, w: -1}
  - {x: 1, y: 0, z: 0, w: -1}
  - {x: 1, y: 0, z: 0, w: -1}
  - {x: 1, y: 0, z: 0, w: -1}
  - {x: -1, y: 0, z: 0, w: -1}
  - {x: -1, y: 0, z: 0, w: -1}
  - {x: -1, y: 0, z: 0, w: -1}
  - {x: 1, y: 0, z: 0, w: -1}
  - {x: 1, y: 0, z: 0, w: -1}
  - {x: 1, y: 0, z: 0, w: -1}
  - {x: -1, y: 0, z: 0, w: -1}
  - {x: -1, y: 0, z: 0, w: -1}
  - {x: -1, y: 0, z: 0, w: -1}
  - {x: 1, y: 0, z: 0, w: -1}
  - {x: 1, y: 0, z: 0, w: -1}
  - {x: 1, y: 0, z: 0, w: -1}
  - {x: -1, y: 0, z: 0, w: -1}
  - {x: -1, y: 0, z: 0, w: -1}
  - {x: -1, y: 0, z: 0, w: -1}
  - {x: 1, y: 0, z: 0, w: -1}
  - {x: 1, y: 0, z: 0, w: -1}
  - {x: 1, y: 0, z: 0, w: -1}
  - {x: -1, y: 0, z: 0, w: -1}
  - {x: -1, y: 0, z: 0, w: -1}
  - {x: -1, y: 0, z: 0, w: -1}
  - {x: 1, y: 0, z: 0, w: -1}
  - {x: 1, y: 0, z: 0, w: -1}
  - {x: 1, y: 0, z: 0, w: -1}
  - {x: -1, y: 0, z: 0, w: -1}
  - {x: -1, y: 0, z: 0, w: -1}
  - {x: -1, y: 0, z: 0, w: -1}
  - {x: 1, y: 0, z: 0, w: -1}
  - {x: 1, y: 0, z: 0, w: -1}
  - {x: 1, y: 0, z: 0, w: -1}
  - {x: -1, y: 0, z: 0, w: -1}
  - {x: -1, y: 0, z: 0, w: -1}
  - {x: -1, y: 0, z: 0, w: -1}
  - {x: 1, y: 0, z: 0, w: -1}
  - {x: 1, y: 0, z: 0, w: -1}
  - {x: 1, y: 0, z: 0, w: -1}
  m_Colors: []
  m_UnwrapParameters:
    m_HardAngle: 88
    m_PackMargin: 20
    m_AngleError: 8
    m_AreaError: 15
  m_PreserveMeshAssetOnDestroy: 0
  assetGuid: 
  m_IsSelectable: 1
  m_SelectedFaces: 
  m_SelectedEdges: []
  m_SelectedVertices: 
--- !u!64 &2564653231340444516
MeshCollider:
  m_ObjectHideFlags: 0
  m_CorrespondingSourceObject: {fileID: 0}
  m_PrefabInstance: {fileID: 0}
  m_PrefabAsset: {fileID: 0}
  m_GameObject: {fileID: 2564653231340444517}
  m_Material: {fileID: 0}
  m_IsTrigger: 0
  m_Enabled: 1
  serializedVersion: 3
  m_Convex: 0
  m_CookingOptions: 30
  m_Mesh: {fileID: 0}
--- !u!1 &2564653231429393991
GameObject:
  m_ObjectHideFlags: 0
  m_CorrespondingSourceObject: {fileID: 0}
  m_PrefabInstance: {fileID: 0}
  m_PrefabAsset: {fileID: 0}
  serializedVersion: 6
  m_Component:
  - component: {fileID: 2564653231429393986}
  - component: {fileID: 2564653231429393987}
  - component: {fileID: 2564653231429393984}
  - component: {fileID: 2564653231429393985}
  - component: {fileID: 2564653231429393990}
  m_Layer: 0
  m_Name: Cone
  m_TagString: Untagged
  m_Icon: {fileID: 0}
  m_NavMeshLayer: 0
  m_StaticEditorFlags: 4294967295
  m_IsActive: 1
--- !u!4 &2564653231429393986
Transform:
  m_ObjectHideFlags: 0
  m_CorrespondingSourceObject: {fileID: 0}
  m_PrefabInstance: {fileID: 0}
  m_PrefabAsset: {fileID: 0}
  m_GameObject: {fileID: 2564653231429393991}
  m_LocalRotation: {x: -0, y: -0, z: -0, w: 1}
  m_LocalPosition: {x: 1, y: 1.01, z: 0}
  m_LocalScale: {x: 1, y: 1, z: 1}
  m_Children: []
  m_Father: {fileID: 8717666134020726227}
  m_RootOrder: 0
  m_LocalEulerAnglesHint: {x: 0, y: 0, z: 0}
--- !u!33 &2564653231429393987
MeshFilter:
  m_ObjectHideFlags: 0
  m_CorrespondingSourceObject: {fileID: 0}
  m_PrefabInstance: {fileID: 0}
  m_PrefabAsset: {fileID: 0}
  m_GameObject: {fileID: 2564653231429393991}
  m_Mesh: {fileID: 0}
--- !u!23 &2564653231429393984
MeshRenderer:
  m_ObjectHideFlags: 0
  m_CorrespondingSourceObject: {fileID: 0}
  m_PrefabInstance: {fileID: 0}
  m_PrefabAsset: {fileID: 0}
  m_GameObject: {fileID: 2564653231429393991}
  m_Enabled: 1
  m_CastShadows: 1
  m_ReceiveShadows: 1
  m_DynamicOccludee: 1
  m_MotionVectors: 1
  m_LightProbeUsage: 1
  m_ReflectionProbeUsage: 1
  m_RayTracingMode: 2
  m_RenderingLayerMask: 1
  m_RendererPriority: 0
  m_Materials:
  - {fileID: 2100000, guid: d592a217826e74410b8ec041c75c4eae, type: 2}
  m_StaticBatchInfo:
    firstSubMesh: 0
    subMeshCount: 0
  m_StaticBatchRoot: {fileID: 0}
  m_ProbeAnchor: {fileID: 0}
  m_LightProbeVolumeOverride: {fileID: 0}
  m_ScaleInLightmap: 1
  m_ReceiveGI: 1
  m_PreserveUVs: 0
  m_IgnoreNormalsForChartDetection: 0
  m_ImportantGI: 0
  m_StitchLightmapSeams: 1
  m_SelectedEditorRenderState: 2
  m_MinimumChartSize: 4
  m_AutoUVMaxDistance: 0.5
  m_AutoUVMaxAngle: 89
  m_LightmapParameters: {fileID: 0}
  m_SortingLayerID: 0
  m_SortingLayer: 0
  m_SortingOrder: 0
--- !u!114 &2564653231429393985
MonoBehaviour:
  m_ObjectHideFlags: 0
  m_CorrespondingSourceObject: {fileID: 0}
  m_PrefabInstance: {fileID: 0}
  m_PrefabAsset: {fileID: 0}
  m_GameObject: {fileID: 2564653231429393991}
  m_Enabled: 1
  m_EditorHideFlags: 0
  m_Script: {fileID: 11500000, guid: 8233d90336aea43098adf6dbabd606a2, type: 3}
  m_Name: 
  m_EditorClassIdentifier: 
  m_MeshFormatVersion: 1
  m_Faces:
  - m_Indexes: 020000000100000000000000
    m_SmoothingGroup: 0
    m_Uv:
      m_UseWorldSpace: 0
      m_FlipU: 0
      m_FlipV: 0
      m_SwapUV: 0
      m_Fill: 1
      m_Scale: {x: 1, y: 1}
      m_Offset: {x: 0, y: 0}
      m_Rotation: 0
      m_Anchor: 6
    m_Material: {fileID: 2100000, guid: 31321ba15b8f8eb4c954353edc038b1d, type: 2}
    m_SubmeshIndex: 0
    m_ManualUV: 1
    elementGroup: 0
    m_TextureGroup: -1
  - m_Indexes: 030000000400000005000000
    m_SmoothingGroup: 0
    m_Uv:
      m_UseWorldSpace: 0
      m_FlipU: 0
      m_FlipV: 0
      m_SwapUV: 0
      m_Fill: 1
      m_Scale: {x: 1, y: 1}
      m_Offset: {x: 0, y: 0}
      m_Rotation: 0
      m_Anchor: 9
    m_Material: {fileID: 2100000, guid: 31321ba15b8f8eb4c954353edc038b1d, type: 2}
    m_SubmeshIndex: 0
    m_ManualUV: 0
    elementGroup: 0
    m_TextureGroup: -1
  - m_Indexes: 080000000700000006000000
    m_SmoothingGroup: 0
    m_Uv:
      m_UseWorldSpace: 0
      m_FlipU: 0
      m_FlipV: 0
      m_SwapUV: 0
      m_Fill: 1
      m_Scale: {x: 1, y: 1}
      m_Offset: {x: 0, y: 0}
      m_Rotation: 0
      m_Anchor: 9
    m_Material: {fileID: 2100000, guid: 31321ba15b8f8eb4c954353edc038b1d, type: 2}
    m_SubmeshIndex: 0
    m_ManualUV: 1
    elementGroup: 0
    m_TextureGroup: -1
  - m_Indexes: 090000000a0000000b000000
    m_SmoothingGroup: 0
    m_Uv:
      m_UseWorldSpace: 0
      m_FlipU: 0
      m_FlipV: 0
      m_SwapUV: 0
      m_Fill: 1
      m_Scale: {x: 1, y: 1}
      m_Offset: {x: 0, y: 0}
      m_Rotation: 0
      m_Anchor: 9
    m_Material: {fileID: 2100000, guid: 31321ba15b8f8eb4c954353edc038b1d, type: 2}
    m_SubmeshIndex: 0
    m_ManualUV: 0
    elementGroup: 0
    m_TextureGroup: -1
  - m_Indexes: 0e0000000d0000000c000000
    m_SmoothingGroup: 0
    m_Uv:
      m_UseWorldSpace: 0
      m_FlipU: 0
      m_FlipV: 0
      m_SwapUV: 0
      m_Fill: 1
      m_Scale: {x: 1, y: 1}
      m_Offset: {x: 0, y: 0}
      m_Rotation: 0
      m_Anchor: 9
    m_Material: {fileID: 2100000, guid: 31321ba15b8f8eb4c954353edc038b1d, type: 2}
    m_SubmeshIndex: 0
    m_ManualUV: 1
    elementGroup: 0
    m_TextureGroup: -1
  - m_Indexes: 0f0000001000000011000000
    m_SmoothingGroup: 0
    m_Uv:
      m_UseWorldSpace: 0
      m_FlipU: 0
      m_FlipV: 0
      m_SwapUV: 0
      m_Fill: 1
      m_Scale: {x: 1, y: 1}
      m_Offset: {x: 0, y: 0}
      m_Rotation: 0
      m_Anchor: 9
    m_Material: {fileID: 2100000, guid: 31321ba15b8f8eb4c954353edc038b1d, type: 2}
    m_SubmeshIndex: 0
    m_ManualUV: 0
    elementGroup: 0
    m_TextureGroup: -1
  - m_Indexes: 140000001300000012000000
    m_SmoothingGroup: 0
    m_Uv:
      m_UseWorldSpace: 0
      m_FlipU: 0
      m_FlipV: 0
      m_SwapUV: 0
      m_Fill: 1
      m_Scale: {x: 1, y: 1}
      m_Offset: {x: 0, y: 0}
      m_Rotation: 0
      m_Anchor: 9
    m_Material: {fileID: 2100000, guid: 31321ba15b8f8eb4c954353edc038b1d, type: 2}
    m_SubmeshIndex: 0
    m_ManualUV: 1
    elementGroup: 0
    m_TextureGroup: -1
  - m_Indexes: 150000001600000017000000
    m_SmoothingGroup: 0
    m_Uv:
      m_UseWorldSpace: 0
      m_FlipU: 0
      m_FlipV: 0
      m_SwapUV: 0
      m_Fill: 1
      m_Scale: {x: 1, y: 1}
      m_Offset: {x: 0, y: 0}
      m_Rotation: 0
      m_Anchor: 9
    m_Material: {fileID: 2100000, guid: 31321ba15b8f8eb4c954353edc038b1d, type: 2}
    m_SubmeshIndex: 0
    m_ManualUV: 0
    elementGroup: 0
    m_TextureGroup: -1
  - m_Indexes: 1a0000001900000018000000
    m_SmoothingGroup: 0
    m_Uv:
      m_UseWorldSpace: 0
      m_FlipU: 0
      m_FlipV: 0
      m_SwapUV: 0
      m_Fill: 1
      m_Scale: {x: 1, y: 1}
      m_Offset: {x: 0, y: 0}
      m_Rotation: 0
      m_Anchor: 9
    m_Material: {fileID: 2100000, guid: 31321ba15b8f8eb4c954353edc038b1d, type: 2}
    m_SubmeshIndex: 0
    m_ManualUV: 1
    elementGroup: 0
    m_TextureGroup: -1
  - m_Indexes: 1b0000001c0000001d000000
    m_SmoothingGroup: 0
    m_Uv:
      m_UseWorldSpace: 0
      m_FlipU: 0
      m_FlipV: 0
      m_SwapUV: 0
      m_Fill: 1
      m_Scale: {x: 1, y: 1}
      m_Offset: {x: 0, y: 0}
      m_Rotation: 0
      m_Anchor: 9
    m_Material: {fileID: 2100000, guid: 31321ba15b8f8eb4c954353edc038b1d, type: 2}
    m_SubmeshIndex: 0
    m_ManualUV: 0
    elementGroup: 0
    m_TextureGroup: -1
  - m_Indexes: 200000001f0000001e000000
    m_SmoothingGroup: 0
    m_Uv:
      m_UseWorldSpace: 0
      m_FlipU: 0
      m_FlipV: 0
      m_SwapUV: 0
      m_Fill: 1
      m_Scale: {x: 1, y: 1}
      m_Offset: {x: 0, y: 0}
      m_Rotation: 0
      m_Anchor: 9
    m_Material: {fileID: 2100000, guid: 31321ba15b8f8eb4c954353edc038b1d, type: 2}
    m_SubmeshIndex: 0
    m_ManualUV: 1
    elementGroup: 0
    m_TextureGroup: -1
  - m_Indexes: 210000002200000023000000
    m_SmoothingGroup: 0
    m_Uv:
      m_UseWorldSpace: 0
      m_FlipU: 0
      m_FlipV: 0
      m_SwapUV: 0
      m_Fill: 1
      m_Scale: {x: 1, y: 1}
      m_Offset: {x: 0, y: 0}
      m_Rotation: 0
      m_Anchor: 9
    m_Material: {fileID: 2100000, guid: 31321ba15b8f8eb4c954353edc038b1d, type: 2}
    m_SubmeshIndex: 0
    m_ManualUV: 0
    elementGroup: 0
    m_TextureGroup: -1
  - m_Indexes: 260000002500000024000000
    m_SmoothingGroup: 0
    m_Uv:
      m_UseWorldSpace: 0
      m_FlipU: 0
      m_FlipV: 0
      m_SwapUV: 0
      m_Fill: 1
      m_Scale: {x: 1, y: 1}
      m_Offset: {x: 0, y: 0}
      m_Rotation: 0
      m_Anchor: 9
    m_Material: {fileID: 2100000, guid: 31321ba15b8f8eb4c954353edc038b1d, type: 2}
    m_SubmeshIndex: 0
    m_ManualUV: 1
    elementGroup: 0
    m_TextureGroup: -1
  - m_Indexes: 270000002800000029000000
    m_SmoothingGroup: 0
    m_Uv:
      m_UseWorldSpace: 0
      m_FlipU: 0
      m_FlipV: 0
      m_SwapUV: 0
      m_Fill: 1
      m_Scale: {x: 1, y: 1}
      m_Offset: {x: 0, y: 0}
      m_Rotation: 0
      m_Anchor: 9
    m_Material: {fileID: 2100000, guid: 31321ba15b8f8eb4c954353edc038b1d, type: 2}
    m_SubmeshIndex: 0
    m_ManualUV: 0
    elementGroup: 0
    m_TextureGroup: -1
  - m_Indexes: 2c0000002b0000002a000000
    m_SmoothingGroup: 0
    m_Uv:
      m_UseWorldSpace: 0
      m_FlipU: 0
      m_FlipV: 0
      m_SwapUV: 0
      m_Fill: 1
      m_Scale: {x: 1, y: 1}
      m_Offset: {x: 0, y: 0}
      m_Rotation: 0
      m_Anchor: 9
    m_Material: {fileID: 2100000, guid: 31321ba15b8f8eb4c954353edc038b1d, type: 2}
    m_SubmeshIndex: 0
    m_ManualUV: 1
    elementGroup: 0
    m_TextureGroup: -1
  - m_Indexes: 2d0000002e0000002f000000
    m_SmoothingGroup: 0
    m_Uv:
      m_UseWorldSpace: 0
      m_FlipU: 0
      m_FlipV: 0
      m_SwapUV: 0
      m_Fill: 1
      m_Scale: {x: 1, y: 1}
      m_Offset: {x: 0, y: 0}
      m_Rotation: 0
      m_Anchor: 9
    m_Material: {fileID: 2100000, guid: 31321ba15b8f8eb4c954353edc038b1d, type: 2}
    m_SubmeshIndex: 0
    m_ManualUV: 0
    elementGroup: 0
    m_TextureGroup: -1
  - m_Indexes: 320000003100000030000000
    m_SmoothingGroup: 0
    m_Uv:
      m_UseWorldSpace: 0
      m_FlipU: 0
      m_FlipV: 0
      m_SwapUV: 0
      m_Fill: 1
      m_Scale: {x: 1, y: 1}
      m_Offset: {x: 0, y: 0}
      m_Rotation: 0
      m_Anchor: 9
    m_Material: {fileID: 2100000, guid: 31321ba15b8f8eb4c954353edc038b1d, type: 2}
    m_SubmeshIndex: 0
    m_ManualUV: 1
    elementGroup: 0
    m_TextureGroup: -1
  - m_Indexes: 330000003400000035000000
    m_SmoothingGroup: 0
    m_Uv:
      m_UseWorldSpace: 0
      m_FlipU: 0
      m_FlipV: 0
      m_SwapUV: 0
      m_Fill: 1
      m_Scale: {x: 1, y: 1}
      m_Offset: {x: 0, y: 0}
      m_Rotation: 0
      m_Anchor: 9
    m_Material: {fileID: 2100000, guid: 31321ba15b8f8eb4c954353edc038b1d, type: 2}
    m_SubmeshIndex: 0
    m_ManualUV: 0
    elementGroup: 0
    m_TextureGroup: -1
  - m_Indexes: 380000003700000036000000
    m_SmoothingGroup: 0
    m_Uv:
      m_UseWorldSpace: 0
      m_FlipU: 0
      m_FlipV: 0
      m_SwapUV: 0
      m_Fill: 1
      m_Scale: {x: 1, y: 1}
      m_Offset: {x: 0, y: 0}
      m_Rotation: 0
      m_Anchor: 9
    m_Material: {fileID: 2100000, guid: 31321ba15b8f8eb4c954353edc038b1d, type: 2}
    m_SubmeshIndex: 0
    m_ManualUV: 1
    elementGroup: 0
    m_TextureGroup: -1
  - m_Indexes: 390000003a0000003b000000
    m_SmoothingGroup: 0
    m_Uv:
      m_UseWorldSpace: 0
      m_FlipU: 0
      m_FlipV: 0
      m_SwapUV: 0
      m_Fill: 1
      m_Scale: {x: 1, y: 1}
      m_Offset: {x: 0, y: 0}
      m_Rotation: 0
      m_Anchor: 9
    m_Material: {fileID: 2100000, guid: 31321ba15b8f8eb4c954353edc038b1d, type: 2}
    m_SubmeshIndex: 0
    m_ManualUV: 0
    elementGroup: 0
    m_TextureGroup: -1
  - m_Indexes: 3e0000003d0000003c000000
    m_SmoothingGroup: 0
    m_Uv:
      m_UseWorldSpace: 0
      m_FlipU: 0
      m_FlipV: 0
      m_SwapUV: 0
      m_Fill: 1
      m_Scale: {x: 1, y: 1}
      m_Offset: {x: 0, y: 0}
      m_Rotation: 0
      m_Anchor: 9
    m_Material: {fileID: 2100000, guid: 31321ba15b8f8eb4c954353edc038b1d, type: 2}
    m_SubmeshIndex: 0
    m_ManualUV: 1
    elementGroup: 0
    m_TextureGroup: -1
  - m_Indexes: 3f0000004000000041000000
    m_SmoothingGroup: 0
    m_Uv:
      m_UseWorldSpace: 0
      m_FlipU: 0
      m_FlipV: 0
      m_SwapUV: 0
      m_Fill: 1
      m_Scale: {x: 1, y: 1}
      m_Offset: {x: 0, y: 0}
      m_Rotation: 0
      m_Anchor: 9
    m_Material: {fileID: 2100000, guid: 31321ba15b8f8eb4c954353edc038b1d, type: 2}
    m_SubmeshIndex: 0
    m_ManualUV: 0
    elementGroup: 0
    m_TextureGroup: -1
  - m_Indexes: 440000004300000042000000
    m_SmoothingGroup: 0
    m_Uv:
      m_UseWorldSpace: 0
      m_FlipU: 0
      m_FlipV: 0
      m_SwapUV: 0
      m_Fill: 1
      m_Scale: {x: 1, y: 1}
      m_Offset: {x: 0, y: 0}
      m_Rotation: 0
      m_Anchor: 9
    m_Material: {fileID: 2100000, guid: 31321ba15b8f8eb4c954353edc038b1d, type: 2}
    m_SubmeshIndex: 0
    m_ManualUV: 1
    elementGroup: 0
    m_TextureGroup: -1
  - m_Indexes: 450000004600000047000000
    m_SmoothingGroup: 0
    m_Uv:
      m_UseWorldSpace: 0
      m_FlipU: 0
      m_FlipV: 0
      m_SwapUV: 0
      m_Fill: 1
      m_Scale: {x: 1, y: 1}
      m_Offset: {x: 0, y: 0}
      m_Rotation: 0
      m_Anchor: 9
    m_Material: {fileID: 2100000, guid: 31321ba15b8f8eb4c954353edc038b1d, type: 2}
    m_SubmeshIndex: 0
    m_ManualUV: 0
    elementGroup: 0
    m_TextureGroup: -1
  m_SharedVertices:
  - m_Vertices: 00000000030000004300000046000000
  - m_Vertices: 01000000040000000600000009000000
  - m_Vertices: 02000000080000000e000000140000001a00000020000000260000002c00000032000000380000003e00000044000000
  - m_Vertices: 050000000b00000011000000170000001d00000023000000290000002f000000350000003b0000004100000047000000
  - m_Vertices: 070000000a0000000c0000000f000000
  - m_Vertices: 0d000000100000001200000015000000
  - m_Vertices: 1300000016000000180000001b000000
  - m_Vertices: 190000001c0000001e00000021000000
  - m_Vertices: 1f000000220000002400000027000000
  - m_Vertices: 25000000280000002a0000002d000000
  - m_Vertices: 2b0000002e0000003000000033000000
  - m_Vertices: 31000000340000003600000039000000
  - m_Vertices: 370000003a0000003c0000003f000000
  - m_Vertices: 3d000000400000004200000045000000
  m_SharedTextures: []
  m_Positions:
  - {x: 0, y: 0, z: 0}
  - {x: -0.13397461, y: 0, z: 0.5}
  - {x: -1, y: 4, z: 0}
  - {x: 0, y: 0, z: 0}
  - {x: -0.13397461, y: 0, z: 0.5}
  - {x: -1, y: 0, z: 0}
  - {x: -0.13397461, y: 0, z: 0.5}
  - {x: -0.5, y: 0, z: 0.86602545}
  - {x: -1, y: 4, z: 0}
  - {x: -0.13397461, y: 0, z: 0.5}
  - {x: -0.5, y: 0, z: 0.86602545}
  - {x: -1, y: 0, z: 0}
  - {x: -0.5, y: 0, z: 0.86602545}
  - {x: -1, y: 0, z: 1}
  - {x: -1, y: 4, z: 0}
  - {x: -0.5, y: 0, z: 0.86602545}
  - {x: -1, y: 0, z: 1}
  - {x: -1, y: 0, z: 0}
  - {x: -1, y: 0, z: 1}
  - {x: -1.5, y: 0, z: 0.8660254}
  - {x: -1, y: 4, z: 0}
  - {x: -1, y: 0, z: 1}
  - {x: -1.5, y: 0, z: 0.8660254}
  - {x: -1, y: 0, z: 0}
  - {x: -1.5, y: 0, z: 0.8660254}
  - {x: -1.8660254, y: 0, z: 0.50000006}
  - {x: -1, y: 4, z: 0}
  - {x: -1.5, y: 0, z: 0.8660254}
  - {x: -1.8660254, y: 0, z: 0.50000006}
  - {x: -1, y: 0, z: 0}
  - {x: -1.8660254, y: 0, z: 0.50000006}
  - {x: -2, y: 0, z: -0.00000008742278}
  - {x: -1, y: 4, z: 0}
  - {x: -1.8660254, y: 0, z: 0.50000006}
  - {x: -2, y: 0, z: -0.00000008742278}
  - {x: -1, y: 0, z: 0}
  - {x: -2, y: 0, z: -0.00000008742278}
  - {x: -1.8660254, y: 0, z: -0.49999997}
  - {x: -1, y: 4, z: 0}
  - {x: -2, y: 0, z: -0.00000008742278}
  - {x: -1.8660254, y: 0, z: -0.49999997}
  - {x: -1, y: 0, z: 0}
  - {x: -1.8660254, y: 0, z: -0.49999997}
  - {x: -1.4999999, y: 0, z: -0.86602545}
  - {x: -1, y: 4, z: 0}
  - {x: -1.8660254, y: 0, z: -0.49999997}
  - {x: -1.4999999, y: 0, z: -0.86602545}
  - {x: -1, y: 0, z: 0}
  - {x: -1.4999999, y: 0, z: -0.86602545}
  - {x: -1, y: 0, z: -1}
  - {x: -1, y: 4, z: 0}
  - {x: -1.4999999, y: 0, z: -0.86602545}
  - {x: -1, y: 0, z: -1}
  - {x: -1, y: 0, z: 0}
  - {x: -1, y: 0, z: -1}
  - {x: -0.5000001, y: 0, z: -0.86602545}
  - {x: -1, y: 4, z: 0}
  - {x: -1, y: 0, z: -1}
  - {x: -0.5000001, y: 0, z: -0.86602545}
  - {x: -1, y: 0, z: 0}
  - {x: -0.5000001, y: 0, z: -0.86602545}
  - {x: -0.13397467, y: 0, z: -0.5000002}
  - {x: -1, y: 4, z: 0}
  - {x: -0.5000001, y: 0, z: -0.86602545}
  - {x: -0.13397467, y: 0, z: -0.5000002}
  - {x: -1, y: 0, z: 0}
  - {x: -0.13397467, y: 0, z: -0.5000002}
  - {x: 0, y: 0, z: 0}
  - {x: -1, y: 4, z: 0}
  - {x: -0.13397467, y: 0, z: -0.5000002}
  - {x: 0, y: 0, z: 0}
  - {x: -1, y: 0, z: 0}
  m_Textures0:
  - {x: 0, y: 0.0000000016587958}
  - {x: 0.5176381, y: 0}
  - {x: 0.2588191, y: 4.1149745}
  - {x: 0, y: 0}
  - {x: 0.13397461, y: 0.5}
  - {x: 1, y: 0}
  - {x: 0, y: 0.0000000016587958}
  - {x: 0.5176381, y: 0}
  - {x: 0.2588191, y: 4.1149745}
  - {x: 0.13397461, y: 0.5}
  - {x: 0.5, y: 0.86602545}
  - {x: 1, y: 0}
  - {x: 0, y: 0.0000000016587958}
  - {x: 0.5176381, y: 0}
  - {x: 0.2588191, y: 4.1149745}
  - {x: 0.5, y: 0.86602545}
  - {x: 1, y: 1}
  - {x: 1, y: 0}
  - {x: 0, y: 0.0000000016587958}
  - {x: 0.5176381, y: 0}
  - {x: 0.2588191, y: 4.1149745}
  - {x: 1, y: 1}
  - {x: 1.5, y: 0.8660254}
  - {x: 1, y: 0}
  - {x: 0, y: 0.0000000016587958}
  - {x: 0.5176381, y: 0}
  - {x: 0.2588191, y: 4.1149745}
  - {x: 1.5, y: 0.8660254}
  - {x: 1.8660254, y: 0.50000006}
  - {x: 1, y: 0}
  - {x: 0, y: 0.0000000016587958}
  - {x: 0.5176381, y: 0}
  - {x: 0.2588191, y: 4.1149745}
  - {x: 1.8660254, y: 0.50000006}
  - {x: 2, y: -0.00000008742278}
  - {x: 1, y: 0}
  - {x: 0, y: 0.0000000016587958}
  - {x: 0.5176381, y: 0}
  - {x: 0.2588191, y: 4.1149745}
  - {x: 2, y: -0.00000008742278}
  - {x: 1.8660254, y: -0.49999997}
  - {x: 1, y: 0}
  - {x: 0, y: 0.0000000016587958}
  - {x: 0.5176381, y: 0}
  - {x: 0.2588191, y: 4.1149745}
  - {x: 1.8660254, y: -0.49999997}
  - {x: 1.4999999, y: -0.86602545}
  - {x: 1, y: 0}
  - {x: 0, y: 0.0000000016587958}
  - {x: 0.5176381, y: 0}
  - {x: 0.2588191, y: 4.1149745}
  - {x: 1.4999999, y: -0.86602545}
  - {x: 1, y: -1}
  - {x: 1, y: 0}
  - {x: 0, y: 0.0000000016587958}
  - {x: 0.5176381, y: 0}
  - {x: 0.2588191, y: 4.1149745}
  - {x: 1, y: -1}
  - {x: 0.5000001, y: -0.86602545}
  - {x: 1, y: 0}
  - {x: 0, y: 0.0000000016587958}
  - {x: 0.5176381, y: 0}
  - {x: 0.2588191, y: 4.1149745}
  - {x: 0.5000001, y: -0.86602545}
  - {x: 0.13397467, y: -0.5000002}
  - {x: 1, y: 0}
  - {x: 0, y: 0.0000000016587958}
  - {x: 0.5176381, y: 0}
  - {x: 0.2588191, y: 4.1149745}
  - {x: 0.13397467, y: -0.5000002}
  - {x: 0, y: 0}
  - {x: 1, y: 0}
  m_Textures2: []
  m_Textures3: []
  m_Tangents:
  - {x: -0.25881907, y: -0.0000000034978145, z: 0.9659258, w: -1}
  - {x: -0.25881907, y: -0.0000000034978145, z: 0.9659258, w: -1}
  - {x: -0.25881907, y: -0.0000000034978145, z: 0.9659258, w: -1}
  - {x: -1, y: 0, z: 0, w: -1}
  - {x: -1, y: 0, z: 0, w: -1}
  - {x: -1, y: 0, z: 0, w: -1}
  - {x: -0.70710677, y: -0.000000006995629, z: 0.7071069, w: -1}
  - {x: -0.70710677, y: -0.000000006995629, z: 0.7071069, w: -1}
  - {x: -0.70710677, y: -0.000000006995629, z: 0.7071069, w: -1}
  - {x: -1, y: 0, z: 0, w: -1}
  - {x: -1, y: 0, z: 0, w: -1}
  - {x: -1, y: 0, z: 0, w: -1}
  - {x: -0.9659259, y: 0.00000000699563, z: 0.258819, w: -1}
  - {x: -0.9659259, y: 0.00000000699563, z: 0.258819, w: -1}
  - {x: -0.9659259, y: 0.00000000699563, z: 0.258819, w: -1}
  - {x: -1, y: 0, z: 0, w: -1}
  - {x: -1, y: 0, z: 0, w: -1}
  - {x: -1, y: 0, z: 0, w: -1}
  - {x: -0.9659258, y: -0.0000000034978145, z: -0.25881907, w: -1}
  - {x: -0.9659258, y: -0.0000000034978145, z: -0.25881907, w: -1}
  - {x: -0.9659258, y: -0.0000000034978145, z: -0.25881907, w: -1}
  - {x: -1, y: 0, z: 0, w: -1}
  - {x: -1, y: 0, z: 0, w: -1}
  - {x: -1, y: 0, z: 0, w: -1}
  - {x: -0.7071069, y: -0.000000006995629, z: -0.70710665, w: -1}
  - {x: -0.7071069, y: -0.000000006995629, z: -0.70710665, w: -1}
  - {x: -0.7071069, y: -0.000000006995629, z: -0.70710665, w: -1}
  - {x: -1, y: 0, z: 0, w: -1}
  - {x: -1, y: 0, z: 0, w: -1}
  - {x: -1, y: 0, z: 0, w: -1}
  - {x: -0.2588189, y: 0.0000000034978138, z: -0.9659259, w: -1}
  - {x: -0.2588189, y: 0.0000000034978138, z: -0.9659259, w: -1}
  - {x: -0.2588189, y: 0.0000000034978138, z: -0.9659259, w: -1}
  - {x: -1, y: 0, z: 0, w: -1}
  - {x: -1, y: 0, z: 0, w: -1}
  - {x: -1, y: 0, z: 0, w: -1}
  - {x: 0.25881907, y: -0.0000000069956316, z: -0.9659259, w: -1}
  - {x: 0.25881907, y: -0.0000000069956316, z: -0.9659259, w: -1}
  - {x: 0.25881907, y: -0.0000000069956316, z: -0.9659259, w: -1}
  - {x: -1, y: 0, z: 0, w: -1}
  - {x: -1, y: 0, z: 0, w: -1}
  - {x: -1, y: 0, z: 0, w: -1}
  - {x: 0.7071069, y: 0, z: -0.7071067, w: -1}
  - {x: 0.7071069, y: 0, z: -0.7071067, w: -1}
  - {x: 0.7071069, y: 0, z: -0.7071067, w: -1}
  - {x: -1, y: 0, z: 0, w: -1}
  - {x: -1, y: 0, z: 0, w: -1}
  - {x: -1, y: 0, z: 0, w: -1}
  - {x: 0.9659259, y: 0.0000000034978156, z: -0.25881904, w: -1}
  - {x: 0.9659259, y: 0.0000000034978156, z: -0.25881904, w: -1}
  - {x: 0.9659259, y: 0.0000000034978156, z: -0.25881904, w: -1}
  - {x: -1, y: 0, z: 0, w: -1}
  - {x: -1, y: 0, z: 0, w: -1}
  - {x: -1, y: 0, z: 0, w: -1}
  - {x: 0.9659259, y: -0.0000000034978156, z: 0.25881904, w: -1}
  - {x: 0.9659259, y: -0.0000000034978156, z: 0.25881904, w: -1}
  - {x: 0.9659259, y: -0.0000000034978156, z: 0.25881904, w: -1}
  - {x: -1, y: 0, z: 0, w: -1}
  - {x: -1, y: 0, z: 0, w: -1}
  - {x: -1, y: 0, z: 0, w: -1}
  - {x: 0.70710695, y: 0, z: 0.7071066, w: -1}
  - {x: 0.70710695, y: 0, z: 0.7071066, w: -1}
  - {x: 0.70710695, y: 0, z: 0.7071066, w: -1}
  - {x: -1, y: 0, z: 0, w: -1}
  - {x: -1, y: 0, z: 0, w: -1}
  - {x: -1, y: 0, z: 0, w: -1}
  - {x: 0.25881913, y: 0.0000000069956263, z: 0.9659258, w: -1}
  - {x: 0.25881913, y: 0.0000000069956263, z: 0.9659258, w: -1}
  - {x: 0.25881913, y: 0.0000000069956263, z: 0.9659258, w: -1}
  - {x: -1, y: 0, z: 0, w: -1}
  - {x: -1, y: 0, z: 0, w: -1}
  - {x: -1, y: 0, z: 0, w: -1}
  m_Colors: []
  m_UnwrapParameters:
    m_HardAngle: 88
    m_PackMargin: 20
    m_AngleError: 8
    m_AreaError: 15
  m_PreserveMeshAssetOnDestroy: 0
  assetGuid: 
  m_IsSelectable: 1
  m_SelectedFaces: 
  m_SelectedEdges: []
  m_SelectedVertices: 
--- !u!64 &2564653231429393990
MeshCollider:
  m_ObjectHideFlags: 0
  m_CorrespondingSourceObject: {fileID: 0}
  m_PrefabInstance: {fileID: 0}
  m_PrefabAsset: {fileID: 0}
  m_GameObject: {fileID: 2564653231429393991}
  m_Material: {fileID: 0}
  m_IsTrigger: 0
  m_Enabled: 1
  serializedVersion: 3
  m_Convex: 0
  m_CookingOptions: 30
  m_Mesh: {fileID: 0}
