%YAML 1.1
%TAG !u! tag:unity3d.com,2011:
--- !u!1045 &1
EditorBuildSettings:
  m_ObjectHideFlags: 0
  serializedVersion: 2
  m_Scenes:
  - enabled: 1
    path: Assets/Scenes/GameScene.unity
    guid: e94ccb51636f41542a10d7736e908c25
  - enabled: 1
    path: Assets/Scenes/CreditScene.unity
    guid: db72eed2861644bd7867a17e0d866163
  m_configObjects: {}
